# Created By Carrara 7.0

mtllib rock-low-tex1.Mtl

g Vertex_Object
# Number of vertices: 199
v 36.957455 14.769121 42.86087
v 31.767605 41.843754 42.86087
v 29.384373 38.75787 51.439312
v 17.447737 59.361732 42.86087
v 17.592285 59.732281 52.112061
v -0.040624 66.367577 42.86087
v -0.014277 64.108116 51.817345
v -17.492458 59.240379 42.86087
v -16.662205 56.570141 51.607544
v -31.22529 41.048111 42.86087
v -32.2285 42.392365 52.252304
v -39.163109 15.544927 42.86087
v -38.512703 15.351444 51.859657
v -42.41291 -14.216117 42.86087
v -39.129395 -12.970299 52.00058
v -33.084263 -40.904488 42.86087
v -27.979288 -34.355965 51.00806
v -16.916267 -54.810436 42.86087
v -17.745815 -57.455238 52.149731
v -0.040615 -60.579823 42.86087
v -0.068622 -62.604752 51.961159
v 16.893915 -55.006046 42.86087
v 18.186811 -59.425865 52.453487
v 30.579632 -37.812321 42.86087
v 30.640985 -37.944435 51.813427
v 42.412907 -14.24577 42.86087
v 38.673088 -12.925132 51.916031
v 36.957455 14.769121 42.86087
v 37.526421 14.936912 51.645977
v 38.146339 15.246068 33.928604
v 31.782249 41.924122 33.575787
v 16.726833 57.058071 34.037354
v -0.069775 65.818329 33.661419
v -17.601704 59.495232 33.647106
v -29.262823 38.500496 34.34127
v -36.149117 14.410703 34.415646
v -37.578381 -12.490503 34.080063
v -30.606571 -37.796078 33.942009
v -17.027996 -55.278069 33.921497
v -0.006424 -66.372307 33.225304
v 17.840654 -58.036316 33.480263
v 29.416704 -36.283279 34.273048
v 38.184155 -12.658576 33.922497
v 38.146339 15.246068 33.928604
v 37.526421 14.936912 51.645977
v 28.983393 38.177029 60.694359
v 15.587153 52.998119 60.137039
v 0.018956 61.673786 61.020958
v -15.922397 54.222279 60.520279
v -28.832434 38.106735 60.594208
v -35.264709 14.204306 60.245178
v -33.291332 -10.820613 59.265141
v -27.050577 -33.120708 59.465031
v -15.392478 -49.578663 59.835701
v -0.091172 -56.557911 60.241982
v 16.082762 -52.520905 60.790295
v 29.4123 -36.444317 61.001324
v 34.769516 -11.53364 60.041397
v 36.714123 14.58315 60.985714
v 32.460457 13.184412 26.817032
v 28.871534 38.262054 25.053421
v 15.570707 53.310841 25.503716
v -0.089639 58.629536 25.612774
v -15.884176 53.704964 25.349043
v -26.908785 35.457436 26.343262
v -34.311577 13.699275 25.955635
v -32.840523 -10.780724 26.66993
v -29.159969 -36.013836 24.925833
v -15.485032 -50.232681 25.690266
v -0.000156 -53.648621 26.351318
v 15.470243 -50.099499 25.712391
v 26.254089 -32.218418 26.693281
v 31.272364 -10.131047 27.408081
v 32.460457 13.184412 26.817032
v 36.714123 14.58315 60.985714
v 26.103765 34.429409 69.42173
v 14.504498 49.246254 69.395256
v 0.031531 51.27364 67.751755
v -13.644012 46.728691 67.947769
v -24.558626 32.69239 67.877396
v -29.798281 12.23245 67.179489
v -33.413376 -10.766432 70.088669
v -25.641123 -31.232887 68.87439
v -13.804499 -44.195248 67.995003
v -0.107057 -47.769146 67.261887
v 12.605631 -40.956345 66.165085
v 24.712366 -30.482338 68.117386
v 29.840965 -9.764024 67.280449
v 31.030052 12.477096 68.221054
v 30.036621 12.354149 18.281883
v 25.060385 33.450497 17.248915
v 13.991547 48.187622 16.975368
v -0.117162 52.032619 17.594002
v -13.256035 44.930897 18.709778
v -24.943314 32.874886 17.549589
v -30.851675 12.386312 17.7113
v -30.827362 -10.108704 17.703856
v -26.529613 -32.739731 15.831367
v -13.983459 -45.368073 17.141743
v 0.027266 -48.018574 18.336285
v 13.742214 -44.256741 17.692772
v 25.259495 -30.856815 17.149643
v 29.275093 -9.347834 18.924427
v 30.036621 12.354149 18.281883
v 31.030052 12.477096 68.221054
v 20.723068 27.518305 75.956718
v 11.079685 37.840668 74.662529
v 0.088099 45.221508 77.211647
v -10.152864 35.111885 72.2108
v -20.288662 27.31201 75.356155
v -24.969412 10.527414 74.871216
v -25.037647 -7.704401 74.900742
v -18.565205 -22.230694 72.440788
v -10.951418 -34.654335 74.080536
v -0.137401 -39.223148 74.50811
v 10.538086 -34.206062 73.588051
v 18.491129 -22.53978 72.597343
v 24.886711 -8.011229 74.869347
v 25.769873 10.497057 75.933617
v 25.593231 10.802373 9.949273
v 19.061525 25.805368 12.207522
v 10.790826 37.593906 11.387452
v -0.144708 42.534897 10.595618
v -11.23096 38.064865 10.86466
v -20.266068 26.851961 10.610185
v -24.824375 10.147376 11.09179
v -24.624401 -7.877261 11.291528
v -20.380217 -24.916782 10.218418
v -10.189593 -32.723045 13.402474
v 0.065991 -40.294525 10.381957
v 10.620735 -33.855759 12.334148
v 18.286865 -21.986683 13.590442
v 24.314314 -7.485715 11.636269
v 25.593231 10.802373 9.949273
v 25.769873 10.497057 75.933617
v 13.773734 18.659239 79.183922
v 7.489706 25.909653 78.303116
v 0.056149 28.510115 78.066574
v -7.090161 24.981644 76.814507
v -13.336842 18.423815 78.172409
v -16.963257 7.610395 78.777412
v -17.760441 -5.010399 80.335846
v -13.832388 -16.116201 79.126205
v -7.663859 -23.68462 78.71833
v -0.158764 -27.413975 79.872787
v 7.857925 -25.46981 81.008133
v 13.568505 -16.327574 79.003189
v 16.792343 -5.058373 78.589119
v 16.069897 7.003229 76.993538
v 15.843317 7.188715 9.125418
v 13.974167 19.386889 5.641496
v 7.140429 25.446936 8.25764
v -0.143892 28.941908 7.105735
v -8.101072 27.567564 5.049644
v -12.975022 17.590904 8.786062
v -17.793497 7.53675 5.317255
v -16.390141 -4.862112 8.147776
v -12.2757 -14.486 10.366734
v -7.689013 -24.584785 5.949213
v 0.068564 -26.818878 6.606191
v 7.954863 -24.848763 5.339977
v 14.568628 -17.108685 4.506914
v 17.36968 -4.909847 6.028739
v 15.843317 7.188715 9.125418
v 16.069897 7.003229 76.993538
v 7.21787 10.307941 82.486198
v 3.993602 14.296762 82.038834
v 0.074049 16.425461 83.629135
v -4.04096 14.967945 83.531174
v -7.498824 11.021896 84.270683
v -9.175881 4.776446 83.283188
v -9.017879 -1.852208 82.416855
v -7.687334 -8.247443 84.461792
v -4.499073 -13.05472 85.741356
v -0.160887 -14.128844 84.19146
v 3.724723 -11.582304 81.099533
v 7.064102 -8.016142 82.350609
v 9.256918 -2.331372 83.973473
v 8.78986 4.324228 81.804054
v 8.268698 4.417434 5.951862
v 7.453518 11.071724 1.255871
v 3.813329 14.425972 3.705343
v -0.153291 16.347189 2.293594
v -4.194288 14.655338 2.640462
v -7.224438 10.220404 3.615547
v -9.553834 4.52699 1.06726
v -9.435133 -2.373525 1.335783
v -7.156686 -8.031874 3.309536
v -3.852797 -11.755701 4.137594
v 0.072301 -13.841327 2.268559
v 3.863571 -11.390776 4.817801
v 6.791499 -7.292496 5.405268
v 8.718651 -1.787466 4.214986
v 8.268698 4.417434 5.951862
v -0.040621 1.257807 1.096803
v -0.040621 1.257807 1.096803
v -0.040621 1.257807 87.776306
v 8.78986 4.324228 81.804054
v -0.040621 1.257807 87.776306

# Number of normals: 199
vn 0.989978 0.141223 0
vn 0.894992 0.446083 0
vn 0.867128 0.429871 0.251594
vn 0.610352 0.79213 0
vn 0.583863 0.75269 0.304239
vn 0 1 0
vn 0.003948 0.939763 0.341804
vn -0.610352 0.79213 0
vn -0.578829 0.756293 0.304923
vn -0.894992 0.446083 0
vn -0.865159 0.433541 0.252076
vn -0.989978 0.141222 0
vn -0.964361 0.139234 0.224992
vn -0.989978 -0.141223 0
vn -0.964862 -0.135975 0.224839
vn -0.894992 -0.446083 0
vn -0.867128 -0.429872 0.251594
vn -0.610352 -0.79213 0
vn -0.583863 -0.75269 0.304239
vn 0 -1 0
vn -0.003948 -0.939763 0.341804
vn 0.610352 -0.79213 0
vn 0.578829 -0.756293 0.304923
vn 0.894992 -0.446083 0
vn 0.865159 -0.433541 0.252076
vn 0.989978 -0.141222 0
vn 0.964361 -0.139234 0.224992
vn 0.989978 0.141223 0
vn 0.964862 0.135975 0.224839
vn 0.964361 0.139234 -0.224992
vn 0.865159 0.433541 -0.252076
vn 0.578829 0.756293 -0.304923
vn -0.003948 0.939763 -0.341804
vn -0.583863 0.75269 -0.304239
vn -0.867128 0.429871 -0.251594
vn -0.964862 0.135975 -0.224839
vn -0.964361 -0.139234 -0.224992
vn -0.865159 -0.433541 -0.252076
vn -0.578829 -0.756293 -0.304923
vn 0.003948 -0.939763 -0.341804
vn 0.583863 -0.75269 -0.304239
vn 0.867128 -0.429871 -0.251594
vn 0.964862 -0.135975 -0.224839
vn 0.964361 0.139234 -0.224992
vn 0.964862 0.135975 0.224839
vn 0.786797 0.387709 0.480241
vn 0.510967 0.653835 0.558044
vn 0.007049 0.793491 0.608541
vn -0.501119 0.65971 0.560056
vn -0.782456 0.394454 0.481839
vn -0.889552 0.130148 0.437903
vn -0.890719 -0.123815 0.437367
vn -0.786797 -0.387709 0.480241
vn -0.510967 -0.653835 0.558044
vn -0.007049 -0.793491 0.608541
vn 0.501119 -0.65971 0.560056
vn 0.782456 -0.394454 0.481839
vn 0.889552 -0.130148 0.437903
vn 0.890719 0.123815 0.437367
vn 0.889552 0.130148 -0.437903
vn 0.782456 0.394454 -0.481839
vn 0.501119 0.65971 -0.560056
vn -0.007049 0.793491 -0.608541
vn -0.510967 0.653835 -0.558044
vn -0.786798 0.387709 -0.480241
vn -0.890719 0.123815 -0.437367
vn -0.889552 -0.130148 -0.437903
vn -0.782456 -0.394454 -0.481839
vn -0.501119 -0.65971 -0.560056
vn 0.007049 -0.793491 -0.608541
vn 0.510967 -0.653834 -0.558044
vn 0.786798 -0.387709 -0.480241
vn 0.890719 -0.123815 -0.437367
vn 0.889552 0.130148 -0.437903
vn 0.890719 0.123815 0.437367
vn 0.666385 0.325887 0.670618
vn 0.414528 0.525502 0.742977
vn 0.009158 0.619169 0.785204
vn -0.400465 0.532265 0.745869
vn -0.659228 0.334851 0.673271
vn -0.770174 0.114559 0.627462
vn -0.772249 -0.105478 0.626503
vn -0.666385 -0.325887 0.670618
vn -0.414527 -0.525502 0.742977
vn -0.009158 -0.619169 0.785204
vn 0.400465 -0.532265 0.745869
vn 0.659228 -0.334851 0.673271
vn 0.770174 -0.114559 0.627462
vn 0.772249 0.105479 0.626503
vn 0.770174 0.114559 -0.627462
vn 0.659228 0.334851 -0.673271
vn 0.400465 0.532265 -0.745869
vn -0.009158 0.619169 -0.785204
vn -0.414528 0.525501 -0.742977
vn -0.666385 0.325887 -0.670618
vn -0.772249 0.105478 -0.626503
vn -0.770174 -0.114559 -0.627462
vn -0.659228 -0.334851 -0.673271
vn -0.400465 -0.532265 -0.74587
vn 0.009159 -0.619169 -0.785204
vn 0.414528 -0.525502 -0.742977
vn 0.666385 -0.325887 -0.670618
vn 0.772249 -0.105478 -0.626503
vn 0.770174 0.114559 -0.627462
vn 0.772249 0.105479 0.626503
vn 0.51991 0.251424 0.816382
vn 0.311879 0.390021 0.866381
vn 0.010552 0.449481 0.893228
vn -0.294439 0.396924 0.869343
vn -0.509807 0.261838 0.819474
vn -0.613471 0.093452 0.784169
vn -0.616641 -0.082035 0.782959
vn -0.51991 -0.251424 0.816382
vn -0.311879 -0.390021 0.866381
vn -0.010552 -0.449481 0.893228
vn 0.294439 -0.396924 0.869343
vn 0.509807 -0.261838 0.819474
vn 0.613471 -0.093452 0.784168
vn 0.616641 0.082035 0.782959
vn 0.613471 0.093452 -0.784169
vn 0.509807 0.261837 -0.819474
vn 0.294439 0.396924 -0.869343
vn -0.010553 0.449481 -0.893228
vn -0.311879 0.390021 -0.866381
vn -0.51991 0.251424 -0.816382
vn -0.616641 0.082035 -0.782959
vn -0.613471 -0.093452 -0.784169
vn -0.509807 -0.261837 -0.819474
vn -0.294438 -0.396924 -0.869343
vn 0.010553 -0.449481 -0.893228
vn 0.311879 -0.390021 -0.866381
vn 0.51991 -0.251424 -0.816382
vn 0.616641 -0.082035 -0.782959
vn 0.613471 0.093452 -0.784169
vn 0.616641 0.082035 0.782959
vn 0.359148 0.170326 0.917606
vn 0.210997 0.257763 0.942889
vn 0.011313 0.29345 0.955907
vn -0.191361 0.264467 0.945219
vn -0.346616 0.181467 0.920286
vn -0.428966 0.068027 0.900755
vn -0.433171 -0.054967 0.899634
vn -0.359148 -0.170326 0.917606
vn -0.210996 -0.257763 0.942889
vn -0.011313 -0.29345 0.955907
vn 0.191361 -0.264467 0.945219
vn 0.346616 -0.181467 0.920286
vn 0.428966 -0.068027 0.900756
vn 0.433171 0.054967 0.899634
vn 0.428966 0.068027 -0.900755
vn 0.346616 0.181467 -0.920286
vn 0.191361 0.264467 -0.945219
vn -0.011313 0.29345 -0.955907
vn -0.210997 0.257763 -0.942889
vn -0.359149 0.170326 -0.917606
vn -0.433171 0.054967 -0.899634
vn -0.428966 -0.068027 -0.900755
vn -0.346616 -0.181467 -0.920286
vn -0.191361 -0.264467 -0.945219
vn 0.011313 -0.29345 -0.955907
vn 0.210997 -0.257763 -0.942889
vn 0.359149 -0.170326 -0.917606
vn 0.433171 -0.054967 -0.899634
vn 0.428966 0.068027 -0.900755
vn 0.433171 0.054967 0.899634
vn 0.192074 0.087956 0.977431
vn 0.112833 0.132318 0.984764
vn 0.00984 0.150392 0.988577
vn -0.095277 0.137788 0.985869
vn -0.18019 0.097599 0.978778
vn -0.228678 0.038828 0.972727
vn -0.232846 -0.027013 0.972138
vn -0.192074 -0.087956 0.977431
vn -0.112833 -0.132318 0.984764
vn -0.00984 -0.150392 0.988577
vn 0.095277 -0.137788 0.985869
vn 0.18019 -0.097599 0.978778
vn 0.228678 -0.038828 0.972727
vn 0.232846 0.027013 0.972138
vn 0.228678 0.038828 -0.972727
vn 0.180191 0.097599 -0.978778
vn 0.095277 0.137788 -0.985869
vn -0.00984 0.150392 -0.988577
vn -0.112833 0.132318 -0.984764
vn -0.192075 0.087957 -0.977431
vn -0.232846 0.027013 -0.972138
vn -0.228678 -0.038828 -0.972727
vn -0.180191 -0.097599 -0.978778
vn -0.095277 -0.137788 -0.985869
vn 0.00984 -0.150392 -0.988577
vn 0.112833 -0.132318 -0.984764
vn 0.192075 -0.087957 -0.977431
vn 0.232846 -0.027013 -0.972138
vn 0.228678 0.038828 -0.972727
vn 0 0 -1
vn 0 0 -1
vn 0 0 1
vn 0.232846 0.027013 0.972138
vn 0 0 1

# Number of texture vertices: 199
vt 0.035714 0.5
vt 0.107143 0.5
vt 0.107143 0.571429
vt 0.178571 0.5
vt 0.178571 0.571429
vt 0.25 0.5
vt 0.25 0.571429
vt 0.321429 0.5
vt 0.321429 0.571429
vt 0.392857 0.5
vt 0.392857 0.571429
vt 0.464286 0.5
vt 0.464286 0.571429
vt 0.535714 0.5
vt 0.535714 0.571429
vt 0.607143 0.5
vt 0.607143 0.571429
vt 0.678571 0.5
vt 0.678571 0.571429
vt 0.75 0.5
vt 0.75 0.571429
vt 0.821429 0.5
vt 0.821429 0.571429
vt 0.892857 0.5
vt 0.892857 0.571429
vt 0.964286 0.5
vt 0.964286 0.571429
vt 1.035714 0.5
vt 1.035714 0.571429
vt 0.035714 0.428571
vt 0.107143 0.428571
vt 0.178571 0.428571
vt 0.25 0.428571
vt 0.321429 0.428571
vt 0.392857 0.428571
vt 0.464286 0.428571
vt 0.535714 0.428571
vt 0.607143 0.428571
vt 0.678571 0.428571
vt 0.75 0.428571
vt 0.821429 0.428571
vt 0.892857 0.428571
vt 0.964286 0.428571
vt 1.035714 0.428571
vt 0.035714 0.571429
vt 0.107143 0.642857
vt 0.178571 0.642857
vt 0.25 0.642857
vt 0.321429 0.642857
vt 0.392857 0.642857
vt 0.464286 0.642857
vt 0.535714 0.642857
vt 0.607143 0.642857
vt 0.678571 0.642857
vt 0.75 0.642857
vt 0.821429 0.642857
vt 0.892857 0.642857
vt 0.964286 0.642857
vt 1.035714 0.642857
vt 0.035714 0.357143
vt 0.107143 0.357143
vt 0.178571 0.357143
vt 0.25 0.357143
vt 0.321429 0.357143
vt 0.392857 0.357143
vt 0.464286 0.357143
vt 0.535714 0.357143
vt 0.607143 0.357143
vt 0.678571 0.357143
vt 0.75 0.357143
vt 0.821429 0.357143
vt 0.892857 0.357143
vt 0.964286 0.357143
vt 1.035714 0.357143
vt 0.035714 0.642857
vt 0.107143 0.714286
vt 0.178571 0.714286
vt 0.25 0.714286
vt 0.321429 0.714286
vt 0.392857 0.714286
vt 0.464286 0.714286
vt 0.535714 0.714286
vt 0.607143 0.714286
vt 0.678571 0.714286
vt 0.75 0.714286
vt 0.821429 0.714286
vt 0.892857 0.714286
vt 0.964286 0.714286
vt 1.035714 0.714286
vt 0.035714 0.285714
vt 0.107143 0.285714
vt 0.178571 0.285714
vt 0.25 0.285714
vt 0.321429 0.285714
vt 0.392857 0.285714
vt 0.464286 0.285714
vt 0.535714 0.285714
vt 0.607143 0.285714
vt 0.678571 0.285714
vt 0.75 0.285714
vt 0.821429 0.285714
vt 0.892857 0.285714
vt 0.964286 0.285714
vt 1.035714 0.285714
vt 0.035714 0.714286
vt 0.107143 0.785714
vt 0.178571 0.785714
vt 0.25 0.785714
vt 0.321429 0.785714
vt 0.392857 0.785714
vt 0.464286 0.785714
vt 0.535714 0.785714
vt 0.607143 0.785714
vt 0.678571 0.785714
vt 0.75 0.785714
vt 0.821429 0.785714
vt 0.892857 0.785714
vt 0.964286 0.785714
vt 1.035714 0.785714
vt 0.035714 0.214286
vt 0.107143 0.214286
vt 0.178571 0.214286
vt 0.25 0.214286
vt 0.321429 0.214286
vt 0.392857 0.214286
vt 0.464286 0.214286
vt 0.535714 0.214286
vt 0.607143 0.214286
vt 0.678571 0.214286
vt 0.75 0.214286
vt 0.821429 0.214286
vt 0.892857 0.214286
vt 0.964286 0.214286
vt 1.035714 0.214286
vt 0.035714 0.785714
vt 0.107143 0.857143
vt 0.178571 0.857143
vt 0.25 0.857143
vt 0.321429 0.857143
vt 0.392857 0.857143
vt 0.464286 0.857143
vt 0.535714 0.857143
vt 0.607143 0.857143
vt 0.678571 0.857143
vt 0.75 0.857143
vt 0.821429 0.857143
vt 0.892857 0.857143
vt 0.964286 0.857143
vt 1.035714 0.857143
vt 0.035714 0.142857
vt 0.107143 0.142857
vt 0.178571 0.142857
vt 0.25 0.142857
vt 0.321429 0.142857
vt 0.392857 0.142857
vt 0.464286 0.142857
vt 0.535714 0.142857
vt 0.607143 0.142857
vt 0.678571 0.142857
vt 0.75 0.142857
vt 0.821429 0.142857
vt 0.892857 0.142857
vt 0.964286 0.142857
vt 1.035714 0.142857
vt 0.035714 0.857143
vt 0.107143 0.928571
vt 0.178571 0.928571
vt 0.25 0.928571
vt 0.321429 0.928571
vt 0.392857 0.928571
vt 0.464286 0.928571
vt 0.535714 0.928571
vt 0.607143 0.928571
vt 0.678571 0.928571
vt 0.75 0.928571
vt 0.821429 0.928571
vt 0.892857 0.928571
vt 0.964286 0.928571
vt 1.035714 0.928571
vt 0.035714 0.071429
vt 0.107143 0.071429
vt 0.178571 0.071429
vt 0.25 0.071429
vt 0.321429 0.071429
vt 0.392857 0.071429
vt 0.464286 0.071429
vt 0.535714 0.071429
vt 0.607143 0.071429
vt 0.678571 0.071429
vt 0.75 0.071429
vt 0.821429 0.071429
vt 0.892857 0.071429
vt 0.964286 0.071429
vt 1.035714 0.071429
vt 0.5 0
vt 1.5 0
vt 0.5 1
vt 0.035714 0.928571
vt 1.5 1

# Number of facets: 364
usemtl Texture_0
f 1/1/1 2/2/2 3/3/3
f 2/2/2 4/4/4 5/5/5
f 4/4/4 6/6/6 7/7/7
f 6/6/6 8/8/8 9/9/9
f 8/8/8 10/10/10 11/11/11
f 10/10/10 12/12/12 13/13/13
f 12/12/12 14/14/14 15/15/15
f 14/14/14 16/16/16 17/17/17
f 16/16/16 18/18/18 19/19/19
f 18/18/18 20/20/20 21/21/21
f 20/20/20 22/22/22 23/23/23
f 22/22/22 24/24/24 25/25/25
f 24/24/24 26/26/26 27/27/27
f 26/26/26 28/28/28 29/29/29
f 30/30/30 31/31/31 2/2/2
f 31/31/31 32/32/32 4/4/4
f 32/32/32 33/33/33 6/6/6
f 33/33/33 34/34/34 8/8/8
f 34/34/34 35/35/35 10/10/10
f 35/35/35 36/36/36 12/12/12
f 36/36/36 37/37/37 14/14/14
f 37/37/37 38/38/38 16/16/16
f 38/38/38 39/39/39 18/18/18
f 39/39/39 40/40/40 20/20/20
f 40/40/40 41/41/41 22/22/22
f 41/41/41 42/42/42 24/24/24
f 42/42/42 43/43/43 26/26/26
f 43/43/43 44/44/44 28/28/28
f 45/45/45 3/3/3 46/46/46
f 3/3/3 5/5/5 47/47/47
f 5/5/5 7/7/7 48/48/48
f 7/7/7 9/9/9 49/49/49
f 9/9/9 11/11/11 50/50/50
f 11/11/11 13/13/13 51/51/51
f 13/13/13 15/15/15 52/52/52
f 15/15/15 17/17/17 53/53/53
f 17/17/17 19/19/19 54/54/54
f 19/19/19 21/21/21 55/55/55
f 21/21/21 23/23/23 56/56/56
f 23/23/23 25/25/25 57/57/57
f 25/25/25 27/27/27 58/58/58
f 27/27/27 29/29/29 59/59/59
f 60/60/60 61/61/61 31/31/31
f 61/61/61 62/62/62 32/32/32
f 62/62/62 63/63/63 33/33/33
f 63/63/63 64/64/64 34/34/34
f 64/64/64 65/65/65 35/35/35
f 65/65/65 66/66/66 36/36/36
f 66/66/66 67/67/67 37/37/37
f 67/67/67 68/68/68 38/38/38
f 68/68/68 69/69/69 39/39/39
f 69/69/69 70/70/70 40/40/40
f 70/70/70 71/71/71 41/41/41
f 71/71/71 72/72/72 42/42/42
f 72/72/72 73/73/73 43/43/43
f 73/73/73 74/74/74 44/44/44
f 75/75/75 46/46/46 76/76/76
f 46/46/46 47/47/47 77/77/77
f 47/47/47 48/48/48 78/78/78
f 48/48/48 49/49/49 79/79/79
f 49/49/49 50/50/50 80/80/80
f 50/50/50 51/51/51 81/81/81
f 51/51/51 52/52/52 82/82/82
f 52/52/52 53/53/53 83/83/83
f 53/53/53 54/54/54 84/84/84
f 54/54/54 55/55/55 85/85/85
f 55/55/55 56/56/56 86/86/86
f 56/56/56 57/57/57 87/87/87
f 57/57/57 58/58/58 88/88/88
f 58/58/58 59/59/59 89/89/89
f 90/90/90 91/91/91 61/61/61
f 91/91/91 92/92/92 62/62/62
f 92/92/92 93/93/93 63/63/63
f 93/93/93 94/94/94 64/64/64
f 94/94/94 95/95/95 65/65/65
f 95/95/95 96/96/96 66/66/66
f 96/96/96 97/97/97 67/67/67
f 97/97/97 98/98/98 68/68/68
f 98/98/98 99/99/99 69/69/69
f 99/99/99 100/100/100 70/70/70
f 100/100/100 101/101/101 71/71/71
f 101/101/101 102/102/102 72/72/72
f 102/102/102 103/103/103 73/73/73
f 103/103/103 104/104/104 74/74/74
f 105/105/105 76/76/76 106/106/106
f 76/76/76 77/77/77 107/107/107
f 77/77/77 78/78/78 108/108/108
f 78/78/78 79/79/79 109/109/109
f 79/79/79 80/80/80 110/110/110
f 80/80/80 81/81/81 111/111/111
f 81/81/81 82/82/82 112/112/112
f 82/82/82 83/83/83 113/113/113
f 83/83/83 84/84/84 114/114/114
f 84/84/84 85/85/85 115/115/115
f 85/85/85 86/86/86 116/116/116
f 86/86/86 87/87/87 117/117/117
f 87/87/87 88/88/88 118/118/118
f 88/88/88 89/89/89 119/119/119
f 120/120/120 121/121/121 91/91/91
f 121/121/121 122/122/122 92/92/92
f 122/122/122 123/123/123 93/93/93
f 123/123/123 124/124/124 94/94/94
f 124/124/124 125/125/125 95/95/95
f 125/125/125 126/126/126 96/96/96
f 126/126/126 127/127/127 97/97/97
f 127/127/127 128/128/128 98/98/98
f 128/128/128 129/129/129 99/99/99
f 129/129/129 130/130/130 100/100/100
f 130/130/130 131/131/131 101/101/101
f 131/131/131 132/132/132 102/102/102
f 132/132/132 133/133/133 103/103/103
f 133/133/133 134/134/134 104/104/104
f 135/135/135 106/106/106 136/136/136
f 106/106/106 107/107/107 137/137/137
f 107/107/107 108/108/108 138/138/138
f 108/108/108 109/109/109 139/139/139
f 109/109/109 110/110/110 140/140/140
f 110/110/110 111/111/111 141/141/141
f 111/111/111 112/112/112 142/142/142
f 112/112/112 113/113/113 143/143/143
f 113/113/113 114/114/114 144/144/144
f 114/114/114 115/115/115 145/145/145
f 115/115/115 116/116/116 146/146/146
f 116/116/116 117/117/117 147/147/147
f 117/117/117 118/118/118 148/148/148
f 118/118/118 119/119/119 149/149/149
f 150/150/150 151/151/151 121/121/121
f 151/151/151 152/152/152 122/122/122
f 152/152/152 153/153/153 123/123/123
f 153/153/153 154/154/154 124/124/124
f 154/154/154 155/155/155 125/125/125
f 155/155/155 156/156/156 126/126/126
f 156/156/156 157/157/157 127/127/127
f 157/157/157 158/158/158 128/128/128
f 158/158/158 159/159/159 129/129/129
f 159/159/159 160/160/160 130/130/130
f 160/160/160 161/161/161 131/131/131
f 161/161/161 162/162/162 132/132/132
f 162/162/162 163/163/163 133/133/133
f 163/163/163 164/164/164 134/134/134
f 165/165/165 136/136/136 166/166/166
f 136/136/136 137/137/137 167/167/167
f 137/137/137 138/138/138 168/168/168
f 138/138/138 139/139/139 169/169/169
f 139/139/139 140/140/140 170/170/170
f 140/140/140 141/141/141 171/171/171
f 141/141/141 142/142/142 172/172/172
f 142/142/142 143/143/143 173/173/173
f 143/143/143 144/144/144 174/174/174
f 144/144/144 145/145/145 175/175/175
f 145/145/145 146/146/146 176/176/176
f 146/146/146 147/147/147 177/177/177
f 147/147/147 148/148/148 178/178/178
f 148/148/148 149/149/149 179/179/179
f 180/180/180 181/181/181 151/151/151
f 181/181/181 182/182/182 152/152/152
f 182/182/182 183/183/183 153/153/153
f 183/183/183 184/184/184 154/154/154
f 184/184/184 185/185/185 155/155/155
f 185/185/185 186/186/186 156/156/156
f 186/186/186 187/187/187 157/157/157
f 187/187/187 188/188/188 158/158/158
f 188/188/188 189/189/189 159/159/159
f 189/189/189 190/190/190 160/160/160
f 190/190/190 191/191/191 161/161/161
f 191/191/191 192/192/192 162/162/162
f 192/192/192 193/193/193 163/163/163
f 193/193/193 194/194/194 164/164/164
f 195/195/195 193/193/193 192/192/192
f 195/195/195 192/192/192 191/191/191
f 195/195/195 191/191/191 190/190/190
f 195/195/195 190/190/190 189/189/189
f 195/195/195 189/189/189 188/188/188
f 195/195/195 188/188/188 187/187/187
f 195/195/195 187/187/187 186/186/186
f 195/195/195 186/186/186 185/185/185
f 195/195/195 185/185/185 184/184/184
f 195/195/195 184/184/184 183/183/183
f 195/195/195 183/183/183 182/182/182
f 195/195/195 182/182/182 181/181/181
f 195/195/195 181/181/181 180/180/180
f 196/196/196 194/194/194 193/193/193
f 197/197/197 198/198/198 166/166/166
f 197/197/197 166/166/166 167/167/167
f 197/197/197 167/167/167 168/168/168
f 197/197/197 168/168/168 169/169/169
f 197/197/197 169/169/169 170/170/170
f 197/197/197 170/170/170 171/171/171
f 197/197/197 171/171/171 172/172/172
f 197/197/197 172/172/172 173/173/173
f 197/197/197 173/173/173 174/174/174
f 197/197/197 174/174/174 175/175/175
f 197/197/197 175/175/175 176/176/176
f 197/197/197 176/176/176 177/177/177
f 197/197/197 177/177/177 178/178/178
f 199/199/199 178/178/178 179/179/179
f 1/1/1 3/3/3 45/45/45
f 2/2/2 5/5/5 3/3/3
f 4/4/4 7/7/7 5/5/5
f 6/6/6 9/9/9 7/7/7
f 8/8/8 11/11/11 9/9/9
f 10/10/10 13/13/13 11/11/11
f 12/12/12 15/15/15 13/13/13
f 14/14/14 17/17/17 15/15/15
f 16/16/16 19/19/19 17/17/17
f 18/18/18 21/21/21 19/19/19
f 20/20/20 23/23/23 21/21/21
f 22/22/22 25/25/25 23/23/23
f 24/24/24 27/27/27 25/25/25
f 26/26/26 29/29/29 27/27/27
f 30/30/30 2/2/2 1/1/1
f 31/31/31 4/4/4 2/2/2
f 32/32/32 6/6/6 4/4/4
f 33/33/33 8/8/8 6/6/6
f 34/34/34 10/10/10 8/8/8
f 35/35/35 12/12/12 10/10/10
f 36/36/36 14/14/14 12/12/12
f 37/37/37 16/16/16 14/14/14
f 38/38/38 18/18/18 16/16/16
f 39/39/39 20/20/20 18/18/18
f 40/40/40 22/22/22 20/20/20
f 41/41/41 24/24/24 22/22/22
f 42/42/42 26/26/26 24/24/24
f 43/43/43 28/28/28 26/26/26
f 45/45/45 46/46/46 75/75/75
f 3/3/3 47/47/47 46/46/46
f 5/5/5 48/48/48 47/47/47
f 7/7/7 49/49/49 48/48/48
f 9/9/9 50/50/50 49/49/49
f 11/11/11 51/51/51 50/50/50
f 13/13/13 52/52/52 51/51/51
f 15/15/15 53/53/53 52/52/52
f 17/17/17 54/54/54 53/53/53
f 19/19/19 55/55/55 54/54/54
f 21/21/21 56/56/56 55/55/55
f 23/23/23 57/57/57 56/56/56
f 25/25/25 58/58/58 57/57/57
f 27/27/27 59/59/59 58/58/58
f 60/60/60 31/31/31 30/30/30
f 61/61/61 32/32/32 31/31/31
f 62/62/62 33/33/33 32/32/32
f 63/63/63 34/34/34 33/33/33
f 64/64/64 35/35/35 34/34/34
f 65/65/65 36/36/36 35/35/35
f 66/66/66 37/37/37 36/36/36
f 67/67/67 38/38/38 37/37/37
f 68/68/68 39/39/39 38/38/38
f 69/69/69 40/40/40 39/39/39
f 70/70/70 41/41/41 40/40/40
f 71/71/71 42/42/42 41/41/41
f 72/72/72 43/43/43 42/42/42
f 73/73/73 44/44/44 43/43/43
f 75/75/75 76/76/76 105/105/105
f 46/46/46 77/77/77 76/76/76
f 47/47/47 78/78/78 77/77/77
f 48/48/48 79/79/79 78/78/78
f 49/49/49 80/80/80 79/79/79
f 50/50/50 81/81/81 80/80/80
f 51/51/51 82/82/82 81/81/81
f 52/52/52 83/83/83 82/82/82
f 53/53/53 84/84/84 83/83/83
f 54/54/54 85/85/85 84/84/84
f 55/55/55 86/86/86 85/85/85
f 56/56/56 87/87/87 86/86/86
f 57/57/57 88/88/88 87/87/87
f 58/58/58 89/89/89 88/88/88
f 90/90/90 61/61/61 60/60/60
f 91/91/91 62/62/62 61/61/61
f 92/92/92 63/63/63 62/62/62
f 93/93/93 64/64/64 63/63/63
f 94/94/94 65/65/65 64/64/64
f 95/95/95 66/66/66 65/65/65
f 96/96/96 67/67/67 66/66/66
f 97/97/97 68/68/68 67/67/67
f 98/98/98 69/69/69 68/68/68
f 99/99/99 70/70/70 69/69/69
f 100/100/100 71/71/71 70/70/70
f 101/101/101 72/72/72 71/71/71
f 102/102/102 73/73/73 72/72/72
f 103/103/103 74/74/74 73/73/73
f 105/105/105 106/106/106 135/135/135
f 76/76/76 107/107/107 106/106/106
f 77/77/77 108/108/108 107/107/107
f 78/78/78 109/109/109 108/108/108
f 79/79/79 110/110/110 109/109/109
f 80/80/80 111/111/111 110/110/110
f 81/81/81 112/112/112 111/111/111
f 82/82/82 113/113/113 112/112/112
f 83/83/83 114/114/114 113/113/113
f 84/84/84 115/115/115 114/114/114
f 85/85/85 116/116/116 115/115/115
f 86/86/86 117/117/117 116/116/116
f 87/87/87 118/118/118 117/117/117
f 88/88/88 119/119/119 118/118/118
f 120/120/120 91/91/91 90/90/90
f 121/121/121 92/92/92 91/91/91
f 122/122/122 93/93/93 92/92/92
f 123/123/123 94/94/94 93/93/93
f 124/124/124 95/95/95 94/94/94
f 125/125/125 96/96/96 95/95/95
f 126/126/126 97/97/97 96/96/96
f 127/127/127 98/98/98 97/97/97
f 128/128/128 99/99/99 98/98/98
f 129/129/129 100/100/100 99/99/99
f 130/130/130 101/101/101 100/100/100
f 131/131/131 102/102/102 101/101/101
f 132/132/132 103/103/103 102/102/102
f 133/133/133 104/104/104 103/103/103
f 135/135/135 136/136/136 165/165/165
f 106/106/106 137/137/137 136/136/136
f 107/107/107 138/138/138 137/137/137
f 108/108/108 139/139/139 138/138/138
f 109/109/109 140/140/140 139/139/139
f 110/110/110 141/141/141 140/140/140
f 111/111/111 142/142/142 141/141/141
f 112/112/112 143/143/143 142/142/142
f 113/113/113 144/144/144 143/143/143
f 114/114/114 145/145/145 144/144/144
f 115/115/115 146/146/146 145/145/145
f 116/116/116 147/147/147 146/146/146
f 117/117/117 148/148/148 147/147/147
f 118/118/118 149/149/149 148/148/148
f 150/150/150 121/121/121 120/120/120
f 151/151/151 122/122/122 121/121/121
f 152/152/152 123/123/123 122/122/122
f 153/153/153 124/124/124 123/123/123
f 154/154/154 125/125/125 124/124/124
f 155/155/155 126/126/126 125/125/125
f 156/156/156 127/127/127 126/126/126
f 157/157/157 128/128/128 127/127/127
f 158/158/158 129/129/129 128/128/128
f 159/159/159 130/130/130 129/129/129
f 160/160/160 131/131/131 130/130/130
f 161/161/161 132/132/132 131/131/131
f 162/162/162 133/133/133 132/132/132
f 163/163/163 134/134/134 133/133/133
f 165/165/165 166/166/166 198/198/198
f 136/136/136 167/167/167 166/166/166
f 137/137/137 168/168/168 167/167/167
f 138/138/138 169/169/169 168/168/168
f 139/139/139 170/170/170 169/169/169
f 140/140/140 171/171/171 170/170/170
f 141/141/141 172/172/172 171/171/171
f 142/142/142 173/173/173 172/172/172
f 143/143/143 174/174/174 173/173/173
f 144/144/144 175/175/175 174/174/174
f 145/145/145 176/176/176 175/175/175
f 146/146/146 177/177/177 176/176/176
f 147/147/147 178/178/178 177/177/177
f 148/148/148 179/179/179 178/178/178
f 180/180/180 151/151/151 150/150/150
f 181/181/181 152/152/152 151/151/151
f 182/182/182 153/153/153 152/152/152
f 183/183/183 154/154/154 153/153/153
f 184/184/184 155/155/155 154/154/154
f 185/185/185 156/156/156 155/155/155
f 186/186/186 157/157/157 156/156/156
f 187/187/187 158/158/158 157/157/157
f 188/188/188 159/159/159 158/158/158
f 189/189/189 160/160/160 159/159/159
f 190/190/190 161/161/161 160/160/160
f 191/191/191 162/162/162 161/161/161
f 192/192/192 163/163/163 162/162/162
f 193/193/193 164/164/164 163/163/163
