# Created By Carrara 7.0

mtllib rock-low-tex2.Mtl

g Vertex_Object
# Number of vertices: 202
v 54.767296 26.329294 -15.590461
v 56.714424 55.753609 -1.735496
v 67.761818 52.056526 0.518036
v 56.793564 79.938744 16.898739
v 66.97728 71.317734 19.930294
v 55.133484 82.687469 42.962894
v 64.780113 75.423546 44.087395
v 55.567017 80.460648 67.773232
v 65.379768 72.046326 66.369041
v 56.333599 54.831123 87.231728
v 67.174065 51.002987 85.218666
v 55.764683 11.75719 92.161102
v 66.239182 10.961383 88.329613
v 56.00098 -31.758202 83.360161
v 67.869987 -29.692104 82.700462
v 55.531487 -67.341103 69.920143
v 67.580208 -63.161572 69.124275
v 54.895283 -84.277672 48.382256
v 66.853584 -81.47406 48.147213
v 53.082039 -89.137718 24.565107
v 65.540642 -89.673386 25.149338
v 51.136074 -79.228569 1.764593
v 63.282387 -79.114502 2.321033
v 49.828823 -49.495358 -15.588091
v 62.121624 -49.948784 -13.949998
v 51.740776 -11.02027 -17.616407
v 63.194298 -13.511539 -19.135719
v 54.767296 26.329294 -15.590461
v 65.638313 21.872402 -12.017352
v 43.330536 26.362032 -12.396071
v 44.987286 56.363945 -1.542523
v 44.829041 75.739334 17.416344
v 44.343857 81.803261 42.101414
v 44.746857 74.686462 65.74118
v 44.42804 55.355003 87.33609
v 44.187599 12.474253 93.820267
v 44.242668 -33.208462 85.553314
v 42.936249 -69.495033 70.813072
v 43.144539 -84.554794 48.852119
v 41.599163 -86.022591 25.381035
v 39.382668 -74.684242 3.73743
v 39.567879 -44.304455 -10.361395
v 40.526398 -8.452491 -15.80517
v 43.330536 26.362032 -12.396071
v 65.638313 21.872402 -12.017352
v 75.89473 45.948681 4.691084
v 74.989685 64.271881 22.87421
v 75.17054 74.043159 44.865582
v 74.762573 65.594086 65.178787
v 76.950043 44.927979 81.188461
v 76.073112 10.821134 82.924469
v 77.051155 -22.983212 76.716995
v 78.443817 -53.941753 66.274895
v 77.433662 -71.64286 47.020775
v 75.207443 -76.687668 26.498497
v 73.741669 -71.962151 6.324571
v 74.579262 -50.542583 -11.641493
v 75.677574 -15.911329 -17.399675
v 75.053085 17.343956 -8.058059
v 31.81823 26.068502 -9.636516
v 34.595314 51.945286 1.975613
v 35.257381 67.616859 19.305716
v 34.100582 76.679695 41.326862
v 33.942574 71.439713 63.905193
v 32.521 51.594906 83.901459
v 34.372505 13.182177 87.397736
v 35.060677 -26.902029 79.232811
v 32.691589 -61.100845 67.157692
v 34.306499 -73.136551 48.093369
v 32.343506 -76.036232 27.626162
v 31.51927 -63.074989 9.279223
v 31.81461 -37.79129 -3.015979
v 31.695145 -6.322288 -9.048893
v 31.81823 26.068502 -9.636516
v 75.053085 17.343956 -8.058059
v 81.646698 40.155533 8.936842
v 81.749847 58.358097 24.974886
v 80.987244 62.536018 44.513916
v 84.131775 59.103477 62.318047
v 85.99511 39.369713 74.706909
v 84.507545 11.392989 75.362259
v 83.927139 -15.146618 69.277336
v 85.856461 -40.832172 60.904858
v 83.346756 -55.192802 44.511642
v 83.711899 -63.158009 27.72221
v 85.054016 -64.460678 10.7108
v 82.779259 -45.271553 -2.611577
v 83.02095 -17.908543 -7.609079
v 82.430153 13.29566 -2.820668
v 23.873484 22.535179 -1.741612
v 26.569965 44.318523 7.549145
v 25.601009 60.735046 21.511473
v 26.055357 65.473534 40.747597
v 23.17977 64.205643 60.854988
v 22.105337 44.781429 77.601265
v 24.977568 12.791559 81.260307
v 22.893484 -23.514927 77.980156
v 24.341124 -50.254833 63.413967
v 24.821882 -63.785942 47.732479
v 22.914587 -66.081337 30.068466
v 23.446995 -52.802326 14.491768
v 20.532669 -32.965691 1.757257
v 23.483126 -4.630319 -1.888936
v 23.873484 22.535179 -1.741612
v 82.430153 13.29566 -2.820668
v 85.508247 33.073097 14.437953
v 87.757172 50.454487 26.66321
v 87.627716 53.265392 42.432598
v 89.70517 48.057606 55.951691
v 91.146416 32.792294 64.616234
v 91.374649 12.211672 66.188881
v 90.092216 -8.007427 61.521038
v 89.758865 -26.601038 54.029861
v 87.911736 -38.779968 41.801842
v 92.196632 -48.288734 29.015091
v 91.76017 -47.906918 16.1751
v 91.05687 -36.567223 5.426096
v 88.818848 -15.094792 1.533289
v 88.476929 11.403619 3.605056
v 21.370287 17.26742 9.209627
v 18.868517 36.37458 13.748433
v 18.712461 48.855785 25.306993
v 20.034779 51.927231 40.32045
v 18.427532 48.762859 55.655483
v 16.701296 34.839497 68.182091
v 18.484016 11.384855 72.054932
v 19.351471 -14.524393 67.985275
v 18.974747 -36.395615 58.470402
v 18.578228 -48.822609 46.209255
v 17.128357 -50.718281 32.760513
v 17.599972 -40.786362 20.56679
v 19.250185 -23.32699 12.457149
v 16.474977 -3.37476 6.350424
v 16.474977 -3.37476 6.350424
v 88.476929 11.403619 3.605056
v 92.640907 28.30093 18.706028
v 92.429573 38.505337 28.499004
v 93.239738 41.457973 38.981049
v 93.508698 36.611626 48.021862
v 96.849472 26.877195 54.478317
v 94.679359 12.700652 55.189262
v 94.894554 -1.553124 52.901848
v 95.016113 -14.54536 47.758907
v 97.401772 -25.410582 39.861942
v 96.601578 -29.692715 30.132727
v 93.958313 -27.729235 21.334204
v 96.904129 -21.665638 13.899799
v 95.854073 -6.940228 10.231489
v 91.719452 10.964621 12.946428
v 13.155815 13.540291 16.93173
v 11.688006 27.380604 21.038086
v 14.232781 35.016293 29.76186
v 15.71324 37.080757 39.992863
v 13.854461 34.500561 50.405163
v 12.50837 24.645658 58.730824
v 12.68897 9.009315 62.071213
v 13.846574 -8.197656 59.607239
v 13.790438 -23.009163 53.241283
v 12.966414 -32.385906 44.586433
v 12.656732 -33.978611 35.027962
v 14.293201 -27.105843 26.679651
v 13.776748 -15.774479 20.198696
v 13.486008 -1.533497 16.748663
v 13.486008 -1.533497 16.748663
v 91.719452 10.964621 12.946428
v 94.940575 18.775539 25.786091
v 97.720924 25.280336 30.025553
v 96.892776 26.649172 35.491192
v 98.334732 24.626524 40.317242
v 98.973114 18.996456 43.536644
v 98.937691 11.673931 44.569542
v 96.174599 4.282729 43.153214
v 96.826927 -2.547758 40.512283
v 96.767433 -7.622758 36.243427
v 97.636314 -10.243874 31.421396
v 100.071968 -9.823731 26.661119
v 97.798241 -4.897418 23.23387
v 98.393715 2.424376 21.444014
v 96.755203 11.164469 22.399357
v 10.558995 8.942513 27.53422
v 9.429601 16.233976 29.90411
v 12.487471 20.002274 34.456551
v 12.719933 21.188738 39.589252
v 8.786672 20.038517 44.93689
v 10.256032 14.116229 48.830402
v 8.449399 6.202391 50.966263
v 13.887335 -1.907971 49.193459
v 8.520988 -10.03389 46.941078
v 9.527302 -14.486377 42.217701
v 11.152425 -15.085475 37.122707
v 9.039056 -12.835462 32.249077
v 13.891646 -6.199175 29.456163
v 12.312883 0.964612 27.488825
v 12.312883 0.964612 27.488825
v 8.290596 3.637071 38.713894
v 8.290596 3.637071 38.713894
v 97.425797 8.715947 33.031178
v 96.755203 11.164469 22.399357
v 97.425797 8.715947 33.031178
v 96.826927 -2.547758 40.512283
v 97.798241 -4.897418 23.23387
v 98.393715 2.424376 21.444014

# Number of normals: 202
vn 0.05597 0.234993 -0.970384
vn 0.251803 0.50276 -0.826939
vn 0.565378 0.437002 -0.699555
vn 0.249472 0.84323 -0.476158
vn 0.590336 0.692283 -0.415028
vn 0.134071 0.990286 -0.036872
vn 0.516978 0.855334 -0.033722
vn 0.153766 0.849551 0.504598
vn 0.511444 0.721323 0.467031
vn 0.189299 0.371878 0.908775
vn 0.479579 0.315568 0.818792
vn 0.134256 -0.04436 0.989953
vn 0.434402 -0.044439 0.899622
vn 0.16666 -0.253761 0.952801
vn 0.477546 -0.225508 0.849174
vn 0.15281 -0.560117 0.814198
vn 0.556892 -0.446373 0.700445
vn 0.110503 -0.911954 0.395132
vn 0.580665 -0.729301 0.361867
vn -0.098398 -0.985694 -0.136843
vn 0.463379 -0.88484 -0.048345
vn -0.25914 -0.699234 -0.666272
vn 0.257763 -0.733622 -0.628774
vn -0.29491 -0.268167 -0.917123
vn 0.131817 -0.298592 -0.945234
vn -0.176912 0.026368 -0.983873
vn 0.186066 0.040857 -0.981687
vn 0.05597 0.234993 -0.970384
vn 0.391298 0.245304 -0.886968
vn -0.297173 0.1969 -0.934301
vn -0.21123 0.506677 -0.835859
vn -0.256776 0.850148 -0.45969
vn -0.317916 0.947311 -0.039127
vn -0.307174 0.832833 0.460471
vn -0.221874 0.37004 0.902132
vn -0.198349 -0.040127 0.97931
vn -0.204752 -0.257543 0.944324
vn -0.340812 -0.549344 0.762934
vn -0.411156 -0.843668 0.345218
vn -0.550662 -0.819616 -0.158114
vn -0.614412 -0.546016 -0.56953
vn -0.578354 -0.221239 -0.785213
vn -0.461156 0.004373 -0.887308
vn -0.297173 0.1969 -0.934301
vn 0.391298 0.245304 -0.886968
vn 0.679928 0.397808 -0.615993
vn 0.708099 0.596748 -0.377475
vn 0.700599 0.71304 -0.027104
vn 0.711455 0.57251 0.407511
vn 0.669139 0.244266 0.701846
vn 0.650625 -0.044511 0.758094
vn 0.681293 -0.190419 0.70681
vn 0.760369 -0.32776 0.560725
vn 0.802974 -0.514033 0.301667
vn 0.781486 -0.622753 0.038187
vn 0.675973 -0.596663 -0.432498
vn 0.552275 -0.278279 -0.785846
vn 0.521785 0.035467 -0.852339
vn 0.598438 0.232263 -0.766763
vn -0.568375 0.150074 -0.808967
vn -0.578432 0.423404 -0.697241
vn -0.626775 0.686972 -0.367726
vn -0.640566 0.766999 -0.037251
vn -0.663403 0.65984 0.352856
vn -0.596604 0.29841 0.744993
vn -0.505409 -0.029777 0.862366
vn -0.512352 -0.23076 0.827191
vn -0.65273 -0.443022 0.614552
vn -0.716019 -0.643187 0.271343
vn -0.777217 -0.612485 -0.144209
vn -0.790936 -0.404716 -0.458939
vn -0.740175 -0.183406 -0.646919
vn -0.65323 -0.016659 -0.756977
vn -0.568375 0.150074 -0.808967
vn 0.598438 0.232263 -0.766763
vn 0.713218 0.381455 -0.588057
vn 0.751022 0.553272 -0.360355
vn 0.796034 0.60498 -0.018107
vn 0.827976 0.448043 0.337214
vn 0.803682 0.185658 0.565355
vn 0.78823 -0.043095 0.61387
vn 0.803464 -0.157789 0.574063
vn 0.857332 -0.246804 0.451741
vn 0.896113 -0.364741 0.252874
vn 0.903989 -0.420678 0.076374
vn 0.881754 -0.41369 -0.226652
vn 0.802405 -0.227809 -0.551588
vn 0.735949 0.014396 -0.676884
vn 0.703112 0.206408 -0.680462
vn -0.744948 0.10838 -0.65826
vn -0.786258 0.32092 -0.528024
vn -0.820988 0.502059 -0.271873
vn -0.824016 0.565839 -0.028715
vn -0.845596 0.467317 0.258033
vn -0.806068 0.216841 0.550667
vn -0.727621 -0.015994 0.685793
vn -0.717663 -0.18797 0.670543
vn -0.810266 -0.333315 0.482047
vn -0.864909 -0.457719 0.205977
vn -0.887243 -0.444633 -0.122888
vn -0.876561 -0.305046 -0.372273
vn -0.833524 -0.156364 -0.529894
vn -0.777305 -0.032906 -0.628263
vn -0.744948 0.10838 -0.65826
vn 0.703112 0.206408 -0.680462
vn 0.779483 0.336893 -0.528118
vn 0.823033 0.474027 -0.312915
vn 0.880417 0.474008 -0.013522
vn 0.908033 0.336191 0.249905
vn 0.896117 0.137753 0.421899
vn 0.880186 -0.034424 0.473379
vn 0.883605 -0.126214 0.450902
vn 0.914013 -0.189497 0.358708
vn 0.942244 -0.262136 0.208473
vn 0.954663 -0.287857 0.075879
vn 0.957826 -0.26824 -0.103042
vn 0.920943 -0.16553 -0.352794
vn 0.85224 0.001388 -0.52315
vn 0.788229 0.170031 -0.591426
vn -0.862349 0.077148 -0.500402
vn -0.897003 0.232498 -0.375939
vn -0.916368 0.350438 -0.193555
vn -0.919903 0.391805 -0.016353
vn -0.928663 0.317715 0.19142
vn -0.905163 0.157018 0.394999
vn -0.863779 -0.005663 0.503838
vn -0.856003 -0.138534 0.498064
vn -0.899761 -0.238635 0.365354
vn -0.937535 -0.31333 0.151168
vn -0.945246 -0.311993 -0.095761
vn -0.926528 -0.232269 -0.295968
vn -0.894449 -0.133927 -0.426643
vn -0.863724 -0.041947 -0.502216
vn -0.863724 -0.041947 -0.502216
vn 0.788229 0.170031 -0.591426
vn 0.892732 0.239386 -0.381739
vn 0.919829 0.322866 -0.222875
vn 0.947795 0.318147 -0.021608
vn 0.960383 0.229967 0.157414
vn 0.955115 0.096551 0.280059
vn 0.943914 -0.018585 0.329669
vn 0.94197 -0.090702 0.323213
vn 0.955229 -0.137771 0.261834
vn 0.970762 -0.180578 0.158153
vn 0.979671 -0.192536 0.056351
vn 0.983979 -0.168487 -0.058285
vn 0.971927 -0.103611 -0.21124
vn 0.935052 -0.000475 -0.354511
vn 0.896405 0.119899 -0.426711
vn -0.941209 0.055965 -0.333157
vn -0.956643 0.156856 -0.245419
vn -0.965437 0.227207 -0.127702
vn -0.969225 0.246162 -0.002619
vn -0.970424 0.199759 0.135547
vn -0.958903 0.105169 0.263522
vn -0.942477 -0.00143 0.334267
vn -0.93981 -0.090608 0.329465
vn -0.956295 -0.155706 0.2475
vn -0.974515 -0.197666 0.106061
vn -0.977466 -0.201793 -0.061959
vn -0.964392 -0.161895 -0.209137
vn -0.946397 -0.102418 -0.306338
vn -0.935053 -0.034966 -0.35278
vn -0.935053 -0.034966 -0.35278
vn 0.896405 0.119899 -0.426711
vn 0.974685 0.116117 -0.191067
vn 0.979865 0.156522 -0.12396
vn 0.986828 0.159853 -0.024861
vn 0.990286 0.117381 0.074535
vn 0.988299 0.053654 0.142779
vn 0.984423 -0.003762 0.175776
vn 0.982578 -0.048803 0.17933
vn 0.985435 -0.08024 0.149933
vn 0.990072 -0.102513 0.096172
vn 0.993669 -0.107452 0.032798
vn 0.995278 -0.089029 -0.038675
vn 0.992549 -0.050659 -0.110816
vn 0.984886 0.000892 -0.173202
vn 0.976547 0.059581 -0.206897
vn -0.985014 0.03478 -0.168929
vn -0.988435 0.084735 -0.125764
vn -0.991173 0.11665 -0.062999
vn -0.992682 0.120538 0.007322
vn -0.992259 0.097287 0.077185
vn -0.988833 0.053684 0.139021
vn -0.984482 0.000446 0.175486
vn -0.984213 -0.046929 0.170652
vn -0.988701 -0.080314 0.126569
vn -0.993477 -0.099364 0.055948
vn -0.994324 -0.102493 -0.028533
vn -0.990333 -0.087236 -0.107848
vn -0.985172 -0.056868 -0.161872
vn -0.983055 -0.015679 -0.182641
vn -0.983055 -0.015679 -0.182641
vn -0.999999 0.000818 -0.000877
vn -0.999999 0.000818 -0.000877
vn 0.999984 0.005366 -0.001936
vn 0.976547 0.059581 -0.206897
vn 0.999984 0.005366 -0.001936
vn 0.985435 -0.08024 0.149933
vn 0.992549 -0.050659 -0.110816
vn 0.984886 0.000892 -0.173202

# Number of texture vertices: 202
vt 0.052627 0.5
vt 0.121804 0.5
vt 0.120644 0.556051
vt 0.190934 0.5
vt 0.196252 0.557095
vt 0.276548 0.5
vt 0.281889 0.553959
vt 0.344995 0.5
vt 0.34709 0.547515
vt 0.39897 0.5
vt 0.400374 0.54568
vt 0.461532 0.5
vt 0.461644 0.551013
vt 0.555604 0.5
vt 0.550877 0.560006
vt 0.641622 0.5
vt 0.639248 0.556681
vt 0.71545 0.5
vt 0.716878 0.556646
vt 0.792322 0.5
vt 0.79357 0.552073
vt 0.855635 0.5
vt 0.856246 0.546995
vt 0.916296 0.5
vt 0.914519 0.545557
vt 0.97989 0.5
vt 0.972857 0.549265
vt 1.052627 0.5
vt 1.044627 0.554291
vt 0.059597 0.446476
vt 0.123475 0.448328
vt 0.18864 0.446538
vt 0.273609 0.446957
vt 0.344027 0.453657
vt 0.398336 0.456724
vt 0.45965 0.4514
vt 0.554906 0.443445
vt 0.641403 0.44586
vt 0.713077 0.444978
vt 0.789162 0.446514
vt 0.853977 0.44986
vt 0.917267 0.449888
vt 0.986713 0.446787
vt 1.059597 0.446476
vt 0.044627 0.554291
vt 0.120288 0.620506
vt 0.203552 0.620178
vt 0.288292 0.610329
vt 0.350345 0.598062
vt 0.401397 0.595861
vt 0.457185 0.607549
vt 0.540769 0.627809
vt 0.633836 0.623618
vt 0.718114 0.620856
vt 0.795974 0.608054
vt 0.85527 0.595187
vt 0.911135 0.591359
vt 0.965312 0.59847
vt 1.036052 0.612776
vt 0.065545 0.390397
vt 0.125437 0.39563
vt 0.188634 0.392652
vt 0.271963 0.393071
vt 0.343116 0.405857
vt 0.397584 0.412231
vt 0.4571 0.40236
vt 0.548795 0.386011
vt 0.638823 0.388015
vt 0.708991 0.387454
vt 0.783422 0.387801
vt 0.851147 0.391833
vt 0.917996 0.390588
vt 0.993225 0.386587
vt 1.065545 0.390397
vt 0.036052 0.612776
vt 0.12197 0.686951
vt 0.209418 0.683514
vt 0.290667 0.668038
vt 0.349691 0.652881
vt 0.396817 0.652397
vt 0.446862 0.671638
vt 0.524605 0.704935
vt 0.625003 0.707312
vt 0.719734 0.699023
vt 0.801652 0.673913
vt 0.85598 0.64989
vt 0.906038 0.642934
vt 0.957727 0.652788
vt 1.030458 0.675058
vt 0.070971 0.3288
vt 0.128022 0.337838
vt 0.191029 0.335197
vt 0.271492 0.336748
vt 0.341987 0.353285
vt 0.396328 0.361611
vt 0.453842 0.34931
vt 0.538859 0.326083
vt 0.631797 0.322849
vt 0.703775 0.323589
vt 0.775924 0.321209
vt 0.847426 0.321336
vt 0.919567 0.318297
vt 0.999939 0.317557
vt 1.070971 0.3288
vt 0.030458 0.675058
vt 0.127285 0.746906
vt 0.211157 0.741042
vt 0.285313 0.726298
vt 0.340953 0.713684
vt 0.384162 0.717214
vt 0.428803 0.743141
vt 0.500158 0.787842
vt 0.610223 0.806209
vt 0.723995 0.794145
vt 0.812993 0.755116
vt 0.864958 0.718902
vt 0.908349 0.706537
vt 0.959073 0.716429
vt 1.034227 0.738189
vt 0.076795 0.259766
vt 0.133474 0.27169
vt 0.196941 0.271707
vt 0.27255 0.276306
vt 0.340431 0.292821
vt 0.394223 0.300926
vt 0.449584 0.288494
vt 0.526007 0.261683
vt 0.61813 0.249188
vt 0.696595 0.249352
vt 0.76744 0.244731
vt 0.842092 0.238215
vt 0.923441 0.233789
vt 1.007675 0.240683
vt 0.007675 0.240683
vt 0.034227 0.738189
vt 0.135726 0.800201
vt 0.208048 0.794012
vt 0.269706 0.785559
vt 0.319235 0.780855
vt 0.35842 0.789708
vt 0.396847 0.818606
vt 0.456149 0.867177
vt 0.575651 0.905954
vt 0.739471 0.898468
vt 0.840262 0.850637
vt 0.891986 0.807998
vt 0.932133 0.788824
vt 0.982869 0.790894
vt 1.054748 0.799604
vt 0.088859 0.182406
vt 0.145935 0.196241
vt 0.208233 0.201822
vt 0.276103 0.210177
vt 0.338269 0.222757
vt 0.390387 0.228076
vt 0.44228 0.216396
vt 0.508807 0.190708
vt 0.593938 0.169654
vt 0.679431 0.162041
vt 0.757313 0.156318
vt 0.839039 0.14769
vt 0.932344 0.145838
vt 1.020682 0.160413
vt 0.020682 0.160413
vt 0.054748 0.799604
vt 0.149171 0.854626
vt 0.198709 0.849648
vt 0.242048 0.847347
vt 0.277844 0.850601
vt 0.306441 0.863036
vt 0.329376 0.887468
vt 0.349614 0.923685
vt 0.358513 0.968289
vt 0.959949 0.981246
vt 0.950473 0.93626
vt 0.972188 0.900795
vt 1.002955 0.878557
vt 1.044458 0.867026
vt 1.095429 0.860415
vt 0.127824 0.100526
vt 0.180278 0.116363
vt 0.232416 0.127302
vt 0.284985 0.136051
vt 0.334404 0.142485
vt 0.379403 0.142522
vt 0.42385 0.132452
vt 0.474706 0.113165
vt 0.539237 0.090348
vt 0.621109 0.07047
vt 0.721774 0.055894
vt 0.848094 0.049332
vt 0.976726 0.058344
vt 1.06618 0.079287
vt 0.06618 0.079287
vt 1.322679 0.050856
vt 0.322679 0.050856
vt 0.179158 0.914884
vt 0.095429 0.860415
vt 1.179158 0.914884
vt 1.358513 0.968289
vt 0.002955 0.878557
vt 0.044457 0.867026

# Number of facets: 364
usemtl Texture_0
f 1/1/1 2/2/2 3/3/3
f 2/2/2 4/4/4 5/5/5
f 4/4/4 6/6/6 7/7/7
f 6/6/6 8/8/8 9/9/9
f 8/8/8 10/10/10 11/11/11
f 10/10/10 12/12/12 13/13/13
f 12/12/12 14/14/14 15/15/15
f 14/14/14 16/16/16 17/17/17
f 16/16/16 18/18/18 19/19/19
f 18/18/18 20/20/20 21/21/21
f 20/20/20 22/22/22 23/23/23
f 22/22/22 24/24/24 25/25/25
f 24/24/24 26/26/26 27/27/27
f 26/26/26 28/28/28 29/29/29
f 30/30/30 31/31/31 2/2/2
f 31/31/31 32/32/32 4/4/4
f 32/32/32 33/33/33 6/6/6
f 33/33/33 34/34/34 8/8/8
f 34/34/34 35/35/35 10/10/10
f 35/35/35 36/36/36 12/12/12
f 36/36/36 37/37/37 14/14/14
f 37/37/37 38/38/38 16/16/16
f 38/38/38 39/39/39 18/18/18
f 39/39/39 40/40/40 20/20/20
f 40/40/40 41/41/41 22/22/22
f 41/41/41 42/42/42 24/24/24
f 42/42/42 43/43/43 26/26/26
f 43/43/43 44/44/44 28/28/28
f 45/45/45 3/3/3 46/46/46
f 3/3/3 5/5/5 47/47/47
f 5/5/5 7/7/7 48/48/48
f 7/7/7 9/9/9 49/49/49
f 9/9/9 11/11/11 50/50/50
f 11/11/11 13/13/13 51/51/51
f 13/13/13 15/15/15 52/52/52
f 15/15/15 17/17/17 53/53/53
f 17/17/17 19/19/19 54/54/54
f 19/19/19 21/21/21 55/55/55
f 21/21/21 23/23/23 56/56/56
f 23/23/23 25/25/25 57/57/57
f 25/25/25 27/27/27 58/58/58
f 27/27/27 29/29/29 59/59/59
f 60/60/60 61/61/61 31/31/31
f 61/61/61 62/62/62 32/32/32
f 62/62/62 63/63/63 33/33/33
f 63/63/63 64/64/64 34/34/34
f 64/64/64 65/65/65 35/35/35
f 65/65/65 66/66/66 36/36/36
f 66/66/66 67/67/67 37/37/37
f 67/67/67 68/68/68 38/38/38
f 68/68/68 69/69/69 39/39/39
f 69/69/69 70/70/70 40/40/40
f 70/70/70 71/71/71 41/41/41
f 71/71/71 72/72/72 42/42/42
f 72/72/72 73/73/73 43/43/43
f 73/73/73 74/74/74 44/44/44
f 75/75/75 46/46/46 76/76/76
f 46/46/46 47/47/47 77/77/77
f 47/47/47 48/48/48 78/78/78
f 48/48/48 49/49/49 79/79/79
f 49/49/49 50/50/50 80/80/80
f 50/50/50 51/51/51 81/81/81
f 51/51/51 52/52/52 82/82/82
f 52/52/52 53/53/53 83/83/83
f 53/53/53 54/54/54 84/84/84
f 54/54/54 55/55/55 85/85/85
f 55/55/55 56/56/56 86/86/86
f 56/56/56 57/57/57 87/87/87
f 57/57/57 58/58/58 88/88/88
f 58/58/58 59/59/59 89/89/89
f 90/90/90 91/91/91 61/61/61
f 91/91/91 92/92/92 62/62/62
f 92/92/92 93/93/93 63/63/63
f 93/93/93 94/94/94 64/64/64
f 94/94/94 95/95/95 65/65/65
f 95/95/95 96/96/96 66/66/66
f 96/96/96 97/97/97 67/67/67
f 97/97/97 98/98/98 68/68/68
f 98/98/98 99/99/99 69/69/69
f 99/99/99 100/100/100 70/70/70
f 100/100/100 101/101/101 71/71/71
f 101/101/101 102/102/102 72/72/72
f 102/102/102 103/103/103 73/73/73
f 103/103/103 104/104/104 74/74/74
f 105/105/105 76/76/76 106/106/106
f 76/76/76 77/77/77 107/107/107
f 77/77/77 78/78/78 108/108/108
f 78/78/78 79/79/79 109/109/109
f 79/79/79 80/80/80 110/110/110
f 80/80/80 81/81/81 111/111/111
f 81/81/81 82/82/82 112/112/112
f 82/82/82 83/83/83 113/113/113
f 83/83/83 84/84/84 114/114/114
f 84/84/84 85/85/85 115/115/115
f 85/85/85 86/86/86 116/116/116
f 86/86/86 87/87/87 117/117/117
f 87/87/87 88/88/88 118/118/118
f 88/88/88 89/89/89 119/119/119
f 120/120/120 121/121/121 91/91/91
f 121/121/121 122/122/122 92/92/92
f 122/122/122 123/123/123 93/93/93
f 123/123/123 124/124/124 94/94/94
f 124/124/124 125/125/125 95/95/95
f 125/125/125 126/126/126 96/96/96
f 126/126/126 127/127/127 97/97/97
f 127/127/127 128/128/128 98/98/98
f 128/128/128 129/129/129 99/99/99
f 129/129/129 130/130/130 100/100/100
f 130/130/130 131/131/131 101/101/101
f 131/131/131 132/132/132 102/102/102
f 132/132/132 133/133/133 103/103/103
f 134/134/134 120/120/120 90/90/90
f 135/135/135 106/106/106 136/136/136
f 106/106/106 107/107/107 137/137/137
f 107/107/107 108/108/108 138/138/138
f 108/108/108 109/109/109 139/139/139
f 109/109/109 110/110/110 140/140/140
f 110/110/110 111/111/111 141/141/141
f 111/111/111 112/112/112 142/142/142
f 112/112/112 113/113/113 143/143/143
f 113/113/113 114/114/114 144/144/144
f 114/114/114 115/115/115 145/145/145
f 115/115/115 116/116/116 146/146/146
f 116/116/116 117/117/117 147/147/147
f 117/117/117 118/118/118 148/148/148
f 118/118/118 119/119/119 149/149/149
f 150/150/150 151/151/151 121/121/121
f 151/151/151 152/152/152 122/122/122
f 152/152/152 153/153/153 123/123/123
f 153/153/153 154/154/154 124/124/124
f 154/154/154 155/155/155 125/125/125
f 155/155/155 156/156/156 126/126/126
f 156/156/156 157/157/157 127/127/127
f 157/157/157 158/158/158 128/128/128
f 158/158/158 159/159/159 129/129/129
f 159/159/159 160/160/160 130/130/130
f 160/160/160 161/161/161 131/131/131
f 161/161/161 162/162/162 132/132/132
f 162/162/162 163/163/163 133/133/133
f 164/164/164 150/150/150 120/120/120
f 165/165/165 136/136/136 166/166/166
f 136/136/136 137/137/137 167/167/167
f 137/137/137 138/138/138 168/168/168
f 138/138/138 139/139/139 169/169/169
f 139/139/139 140/140/140 170/170/170
f 140/140/140 141/141/141 171/171/171
f 141/141/141 142/142/142 172/172/172
f 142/142/142 143/143/143 173/173/173
f 143/143/143 144/144/144 174/174/174
f 144/144/144 145/145/145 175/175/175
f 145/145/145 146/146/146 176/176/176
f 146/146/146 147/147/147 177/177/177
f 147/147/147 148/148/148 178/178/178
f 148/148/148 149/149/149 179/179/179
f 180/180/180 181/181/181 151/151/151
f 181/181/181 182/182/182 152/152/152
f 182/182/182 183/183/183 153/153/153
f 183/183/183 184/184/184 154/154/154
f 184/184/184 185/185/185 155/155/155
f 185/185/185 186/186/186 156/156/156
f 186/186/186 187/187/187 157/157/157
f 187/187/187 188/188/188 158/158/158
f 188/188/188 189/189/189 159/159/159
f 189/189/189 190/190/190 160/160/160
f 190/190/190 191/191/191 161/161/161
f 191/191/191 192/192/192 162/162/162
f 192/192/192 193/193/193 163/163/163
f 194/194/194 180/180/180 150/150/150
f 195/195/195 193/193/193 192/192/192
f 195/195/195 192/192/192 191/191/191
f 195/195/195 191/191/191 190/190/190
f 196/196/196 190/190/190 189/189/189
f 196/196/196 189/189/189 188/188/188
f 196/196/196 188/188/188 187/187/187
f 196/196/196 187/187/187 186/186/186
f 196/196/196 186/186/186 185/185/185
f 196/196/196 185/185/185 184/184/184
f 196/196/196 184/184/184 183/183/183
f 196/196/196 183/183/183 182/182/182
f 196/196/196 182/182/182 181/181/181
f 196/196/196 181/181/181 180/180/180
f 196/196/196 180/180/180 194/194/194
f 197/197/197 198/198/198 166/166/166
f 197/197/197 166/166/166 167/167/167
f 197/197/197 167/167/167 168/168/168
f 197/197/197 168/168/168 169/169/169
f 197/197/197 169/169/169 170/170/170
f 197/197/197 170/170/170 171/171/171
f 197/197/197 171/171/171 172/172/172
f 197/197/197 172/172/172 173/173/173
f 199/199/199 200/200/200 174/174/174
f 199/199/199 174/174/174 175/175/175
f 199/199/199 175/175/175 176/176/176
f 199/199/199 176/176/176 177/177/177
f 197/197/197 201/201/201 202/202/202
f 197/197/197 202/202/202 198/198/198
f 1/1/1 3/3/3 45/45/45
f 2/2/2 5/5/5 3/3/3
f 4/4/4 7/7/7 5/5/5
f 6/6/6 9/9/9 7/7/7
f 8/8/8 11/11/11 9/9/9
f 10/10/10 13/13/13 11/11/11
f 12/12/12 15/15/15 13/13/13
f 14/14/14 17/17/17 15/15/15
f 16/16/16 19/19/19 17/17/17
f 18/18/18 21/21/21 19/19/19
f 20/20/20 23/23/23 21/21/21
f 22/22/22 25/25/25 23/23/23
f 24/24/24 27/27/27 25/25/25
f 26/26/26 29/29/29 27/27/27
f 30/30/30 2/2/2 1/1/1
f 31/31/31 4/4/4 2/2/2
f 32/32/32 6/6/6 4/4/4
f 33/33/33 8/8/8 6/6/6
f 34/34/34 10/10/10 8/8/8
f 35/35/35 12/12/12 10/10/10
f 36/36/36 14/14/14 12/12/12
f 37/37/37 16/16/16 14/14/14
f 38/38/38 18/18/18 16/16/16
f 39/39/39 20/20/20 18/18/18
f 40/40/40 22/22/22 20/20/20
f 41/41/41 24/24/24 22/22/22
f 42/42/42 26/26/26 24/24/24
f 43/43/43 28/28/28 26/26/26
f 45/45/45 46/46/46 75/75/75
f 3/3/3 47/47/47 46/46/46
f 5/5/5 48/48/48 47/47/47
f 7/7/7 49/49/49 48/48/48
f 9/9/9 50/50/50 49/49/49
f 11/11/11 51/51/51 50/50/50
f 13/13/13 52/52/52 51/51/51
f 15/15/15 53/53/53 52/52/52
f 17/17/17 54/54/54 53/53/53
f 19/19/19 55/55/55 54/54/54
f 21/21/21 56/56/56 55/55/55
f 23/23/23 57/57/57 56/56/56
f 25/25/25 58/58/58 57/57/57
f 27/27/27 59/59/59 58/58/58
f 60/60/60 31/31/31 30/30/30
f 61/61/61 32/32/32 31/31/31
f 62/62/62 33/33/33 32/32/32
f 63/63/63 34/34/34 33/33/33
f 64/64/64 35/35/35 34/34/34
f 65/65/65 36/36/36 35/35/35
f 66/66/66 37/37/37 36/36/36
f 67/67/67 38/38/38 37/37/37
f 68/68/68 39/39/39 38/38/38
f 69/69/69 40/40/40 39/39/39
f 70/70/70 41/41/41 40/40/40
f 71/71/71 42/42/42 41/41/41
f 72/72/72 43/43/43 42/42/42
f 73/73/73 44/44/44 43/43/43
f 75/75/75 76/76/76 105/105/105
f 46/46/46 77/77/77 76/76/76
f 47/47/47 78/78/78 77/77/77
f 48/48/48 79/79/79 78/78/78
f 49/49/49 80/80/80 79/79/79
f 50/50/50 81/81/81 80/80/80
f 51/51/51 82/82/82 81/81/81
f 52/52/52 83/83/83 82/82/82
f 53/53/53 84/84/84 83/83/83
f 54/54/54 85/85/85 84/84/84
f 55/55/55 86/86/86 85/85/85
f 56/56/56 87/87/87 86/86/86
f 57/57/57 88/88/88 87/87/87
f 58/58/58 89/89/89 88/88/88
f 90/90/90 61/61/61 60/60/60
f 91/91/91 62/62/62 61/61/61
f 92/92/92 63/63/63 62/62/62
f 93/93/93 64/64/64 63/63/63
f 94/94/94 65/65/65 64/64/64
f 95/95/95 66/66/66 65/65/65
f 96/96/96 67/67/67 66/66/66
f 97/97/97 68/68/68 67/67/67
f 98/98/98 69/69/69 68/68/68
f 99/99/99 70/70/70 69/69/69
f 100/100/100 71/71/71 70/70/70
f 101/101/101 72/72/72 71/71/71
f 102/102/102 73/73/73 72/72/72
f 103/103/103 74/74/74 73/73/73
f 105/105/105 106/106/106 135/135/135
f 76/76/76 107/107/107 106/106/106
f 77/77/77 108/108/108 107/107/107
f 78/78/78 109/109/109 108/108/108
f 79/79/79 110/110/110 109/109/109
f 80/80/80 111/111/111 110/110/110
f 81/81/81 112/112/112 111/111/111
f 82/82/82 113/113/113 112/112/112
f 83/83/83 114/114/114 113/113/113
f 84/84/84 115/115/115 114/114/114
f 85/85/85 116/116/116 115/115/115
f 86/86/86 117/117/117 116/116/116
f 87/87/87 118/118/118 117/117/117
f 88/88/88 119/119/119 118/118/118
f 120/120/120 91/91/91 90/90/90
f 121/121/121 92/92/92 91/91/91
f 122/122/122 93/93/93 92/92/92
f 123/123/123 94/94/94 93/93/93
f 124/124/124 95/95/95 94/94/94
f 125/125/125 96/96/96 95/95/95
f 126/126/126 97/97/97 96/96/96
f 127/127/127 98/98/98 97/97/97
f 128/128/128 99/99/99 98/98/98
f 129/129/129 100/100/100 99/99/99
f 130/130/130 101/101/101 100/100/100
f 131/131/131 102/102/102 101/101/101
f 132/132/132 103/103/103 102/102/102
f 133/133/133 104/104/104 103/103/103
f 135/135/135 136/136/136 165/165/165
f 106/106/106 137/137/137 136/136/136
f 107/107/107 138/138/138 137/137/137
f 108/108/108 139/139/139 138/138/138
f 109/109/109 140/140/140 139/139/139
f 110/110/110 141/141/141 140/140/140
f 111/111/111 142/142/142 141/141/141
f 112/112/112 143/143/143 142/142/142
f 113/113/113 144/144/144 143/143/143
f 114/114/114 145/145/145 144/144/144
f 115/115/115 146/146/146 145/145/145
f 116/116/116 147/147/147 146/146/146
f 117/117/117 148/148/148 147/147/147
f 118/118/118 149/149/149 148/148/148
f 150/150/150 121/121/121 120/120/120
f 151/151/151 122/122/122 121/121/121
f 152/152/152 123/123/123 122/122/122
f 153/153/153 124/124/124 123/123/123
f 154/154/154 125/125/125 124/124/124
f 155/155/155 126/126/126 125/125/125
f 156/156/156 127/127/127 126/126/126
f 157/157/157 128/128/128 127/127/127
f 158/158/158 129/129/129 128/128/128
f 159/159/159 130/130/130 129/129/129
f 160/160/160 131/131/131 130/130/130
f 161/161/161 132/132/132 131/131/131
f 162/162/162 133/133/133 132/132/132
f 164/164/164 120/120/120 134/134/134
f 165/165/165 166/166/166 198/198/198
f 136/136/136 167/167/167 166/166/166
f 137/137/137 168/168/168 167/167/167
f 138/138/138 169/169/169 168/168/168
f 139/139/139 170/170/170 169/169/169
f 140/140/140 171/171/171 170/170/170
f 141/141/141 172/172/172 171/171/171
f 142/142/142 173/173/173 172/172/172
f 143/143/143 174/174/174 200/200/200
f 144/144/144 175/175/175 174/174/174
f 145/145/145 176/176/176 175/175/175
f 146/146/146 177/177/177 176/176/176
f 147/147/147 178/178/178 177/177/177
f 148/148/148 179/179/179 178/178/178
f 180/180/180 151/151/151 150/150/150
f 181/181/181 152/152/152 151/151/151
f 182/182/182 153/153/153 152/152/152
f 183/183/183 154/154/154 153/153/153
f 184/184/184 155/155/155 154/154/154
f 185/185/185 156/156/156 155/155/155
f 186/186/186 157/157/157 156/156/156
f 187/187/187 158/158/158 157/157/157
f 188/188/188 159/159/159 158/158/158
f 189/189/189 160/160/160 159/159/159
f 190/190/190 161/161/161 160/160/160
f 191/191/191 162/162/162 161/161/161
f 192/192/192 163/163/163 162/162/162
f 194/194/194 150/150/150 164/164/164
