# Created By Carrara 7.0

mtllib capsule-low.Mtl

# Number of vertices: 142
v 30 9.27051 40.922398
v 18.541021 24.27051 40.922398
v 0 30 40.922398
v -18.541025 24.270508 40.922398
v -30 9.270507 40.922398
v -30 -9.270513 40.922398
v -18.541019 -24.27051 40.922398
v 0.000004 -30 40.922398
v 18.541025 -24.270504 40.922398
v 30 -9.270504 40.922398
v 30 9.27051 53.088181
v 18.541021 24.27051 53.088181
v 0 30 53.088181
v -18.541025 24.270508 53.088181
v -30 9.270507 53.088181
v -30 -9.270513 53.088181
v -18.541019 -24.27051 53.088181
v 0.000004 -30 53.088181
v 18.541025 -24.270504 53.088181
v 30 -9.270504 53.088181
v 30 9.27051 65.253967
v 18.541021 24.27051 65.253967
v 0 30 65.253967
v -18.541025 24.270508 65.253967
v -30 9.270507 65.253967
v -30 -9.270513 65.253967
v -18.541019 -24.27051 65.253967
v 0.000004 -30 65.253967
v 18.541025 -24.270504 65.253967
v 30 -9.270504 65.253967
v 30 9.27051 77.419754
v 18.541021 24.27051 77.419754
v 0 30 77.419754
v -18.541025 24.270508 77.419754
v -30 9.270507 77.419754
v -30 -9.270513 77.419754
v -18.541019 -24.27051 77.419754
v 0.000004 -30 77.419754
v 18.541025 -24.270504 77.419754
v 30 -9.270504 77.419754
v 24.27051 7.5 107.462708
v 14.999998 19.635258 107.462708
v -0.000001 24.27051 107.462708
v -15.000004 19.635252 107.462708
v -24.270515 7.5 107.462708
v -24.27051 -7.500003 107.462708
v -15.000002 -19.635254 107.462708
v 0.000001 -24.27051 107.462708
v 15.000002 -19.635252 107.462708
v 24.27051 -7.499997 107.462708
v 17.633556 5.44907 114.19136
v 10.898137 14.26585 114.19136
v -0.000001 17.63356 114.19136
v -10.898142 14.265844 114.19136
v -17.633562 5.44907 114.19136
v -17.633562 -5.44907 114.19136
v -10.898142 -14.26585 114.19136
v 0.000001 -17.633556 114.19136
v 10.898138 -14.265844 114.19136
v 17.633556 -5.449067 114.19136
v 9.270508 2.864742 118.511414
v 5.729489 7.5 118.511414
v -0.000001 9.27051 118.511414
v -5.729492 7.5 118.511414
v -9.270514 2.864742 118.511414
v -9.270512 -2.864745 118.511414
v -5.729489 -7.5 118.511414
v 0 -9.27051 118.511414
v 5.72949 -7.5 118.511414
v 9.270508 -2.864742 118.511414
v -0.000001 0 120
v -30 -9.270513 89.585533
v -30 9.270507 89.585533
v -28.531694 -8.816783 98.984131
v -28.5317 8.81678 98.984131
v -18.541019 -24.27051 89.585533
v -18.541025 24.270508 89.585533
v -17.633562 -23.08263 98.984131
v -17.633562 23.082624 98.984131
v 0.000004 -30 89.585533
v 0.000003 -28.531694 98.984131
v -0.000001 28.531694 98.984131
v 0 30 89.585533
v 17.633562 -23.082624 98.984131
v 17.633556 23.08263 98.984131
v 18.541025 -24.270504 89.585533
v 18.541021 24.27051 89.585533
v 28.531694 -8.816774 98.984131
v 28.531694 8.81678 98.984131
v 30 -9.270504 89.585533
v 30 9.27051 89.585533
v 24.27051 -7.5 12.537285
v 15 -19.635258 12.537284
v 0 -24.270508 12.537284
v -15.000006 -19.635252 12.537284
v -24.270515 -7.5 12.537285
v -24.27051 7.500003 12.537287
v -15 19.635256 12.537288
v 0 24.27051 12.537288
v 15 19.635254 12.537288
v 24.27051 7.499997 12.537285
v 17.63356 -5.449069 5.808636
v 10.89814 -14.26585 5.808636
v 0 -17.63356 5.808636
v -10.89814 -14.265844 5.808636
v -17.63356 -5.449069 5.808636
v -17.63356 5.449071 5.808636
v -10.89814 14.26585 5.808636
v 0 17.633556 5.808642
v 10.89814 14.265844 5.808642
v 17.63356 5.449068 5.808636
v 9.27051 -2.864741 1.488581
v 5.72949 -7.499999 1.488581
v 0 -9.270509 1.488581
v -5.72949 -7.499999 1.488581
v -9.270515 -2.864741 1.488581
v -9.27051 2.864746 1.488581
v -5.72949 7.500001 1.488581
v 0 9.270512 1.488581
v 5.72949 7.500001 1.488581
v 9.27051 2.864743 1.488581
v 0 0.000001 -0.000004
v -30 -9.270513 28.756611
v -30 9.270507 28.756611
v -28.5317 -8.81678 21.015869
v -28.531694 8.816783 21.015869
v -18.541019 -24.27051 28.756611
v -18.541025 24.270508 28.756611
v -17.63356 -23.082626 21.015867
v -17.63356 23.08263 21.015871
v 0.000004 -30 28.756611
v 0 -28.531694 21.015867
v 0 28.531694 21.015871
v 0 30 28.756611
v 17.63356 -23.082632 21.015867
v 17.63356 23.082623 21.015871
v 18.541025 -24.270504 28.756611
v 18.541021 24.27051 28.756611
v 28.531694 -8.81678 21.015869
v 28.531694 8.816774 21.015869
v 30 -9.270504 28.756611
v 30 9.27051 28.756611

# Number of normals: 142
vn 0.947329 0.320261 0
vn 0.572325 0.820027 0
vn 0 1 0
vn -0.572325 0.820027 0
vn -0.94733 0.32026 0
vn -0.947329 -0.320261 0
vn -0.572325 -0.820027 0
vn 0 -1 0
vn 0.572325 -0.820027 0
vn 0.94733 -0.32026 0
vn 0.947329 0.320261 0
vn 0.572325 0.820027 0
vn 0 1 0
vn -0.572325 0.820027 0
vn -0.94733 0.32026 0
vn -0.947329 -0.320261 0
vn -0.572325 -0.820027 0
vn 0 -1 0
vn 0.572325 -0.820027 0
vn 0.94733 -0.32026 0
vn 0.947329 0.320261 0
vn 0.572325 0.820027 0
vn 0 1 0
vn -0.572325 0.820027 0
vn -0.94733 0.32026 0
vn -0.947329 -0.320261 0
vn -0.572325 -0.820027 0
vn 0 -1 0
vn 0.572325 -0.820027 0
vn 0.94733 -0.32026 0
vn 0.947329 0.320261 0
vn 0.572325 0.820027 0
vn 0 1 0
vn -0.572325 0.820027 0
vn -0.94733 0.32026 0
vn -0.947329 -0.320261 0
vn -0.572325 -0.820027 0
vn 0 -1 0
vn 0.572325 -0.820027 0
vn 0.94733 -0.32026 0
vn 0.774482 0.262755 0.575445
vn 0.453642 0.672561 0.584697
vn 0 0.801307 0.598253
vn -0.453642 0.672561 0.584697
vn -0.756916 0.271699 0.594355
vn -0.774482 -0.262755 0.575445
vn -0.453642 -0.672561 0.584697
vn 0 -0.801307 0.598253
vn 0.453642 -0.672561 0.584697
vn 0.756916 -0.271699 0.594355
vn 0.571629 0.194733 0.797069
vn 0.325074 0.498732 0.803488
vn 0 0.579208 0.81518
vn -0.325074 0.498732 0.803488
vn -0.547866 0.2073 0.810475
vn -0.571629 -0.194733 0.797069
vn -0.325074 -0.498732 0.803488
vn 0 -0.579208 0.81518
vn 0.325074 -0.498732 0.803488
vn 0.547866 -0.2073 0.810475
vn 0.319369 0.10955 0.941277
vn 0.171577 0.283658 0.943451
vn 0 0.31287 0.949796
vn -0.171577 0.283658 0.943451
vn -0.298681 0.124788 0.946159
vn -0.319369 -0.10955 0.941277
vn -0.171577 -0.283658 0.943451
vn 0 -0.312871 0.949796
vn 0.171577 -0.283658 0.943451
vn 0.298681 -0.124788 0.946159
vn 0 0 1
vn -0.959278 -0.270918 0.079937
vn -0.934834 0.347321 0.073847
vn -0.892831 -0.332422 0.303889
vn -0.908067 0.288208 0.303893
vn -0.608958 -0.789372 0.077863
vn -0.56736 0.819766 0.078017
vn -0.539268 -0.783785 0.308013
vn -0.539268 0.783785 0.308013
vn -0.023255 -0.996406 0.081448
vn 0 -0.945912 0.324424
vn 0 0.945912 0.324424
vn 0.023255 0.996406 0.081448
vn 0.539268 -0.783784 0.308013
vn 0.539268 0.783785 0.308013
vn 0.56736 -0.819766 0.078017
vn 0.608958 0.789372 0.077863
vn 0.908067 -0.288208 0.303893
vn 0.892831 0.332422 0.303889
vn 0.934834 -0.347321 0.073848
vn 0.959278 0.270918 0.079937
vn 0.774482 -0.262755 -0.575445
vn 0.453642 -0.672561 -0.584697
vn 0 -0.801307 -0.598253
vn -0.453642 -0.672561 -0.584697
vn -0.756916 -0.271699 -0.594355
vn -0.774482 0.262755 -0.575445
vn -0.453642 0.672561 -0.584697
vn 0 0.801307 -0.598253
vn 0.453642 0.672561 -0.584697
vn 0.756916 0.271699 -0.594355
vn 0.571629 -0.194733 -0.797069
vn 0.325074 -0.498732 -0.803488
vn 0 -0.579208 -0.81518
vn -0.325074 -0.498732 -0.803488
vn -0.547866 -0.2073 -0.810475
vn -0.571629 0.194733 -0.797069
vn -0.325074 0.498732 -0.803488
vn 0 0.579208 -0.81518
vn 0.325074 0.498732 -0.803488
vn 0.547866 0.2073 -0.810475
vn 0.319369 -0.10955 -0.941277
vn 0.171577 -0.283658 -0.943451
vn 0 -0.31287 -0.949796
vn -0.171577 -0.283658 -0.943451
vn -0.298681 -0.124788 -0.946159
vn -0.319369 0.10955 -0.941277
vn -0.171577 0.283658 -0.943451
vn 0 0.312871 -0.949796
vn 0.171577 0.283659 -0.943451
vn 0.298681 0.124788 -0.946159
vn 0 0 -1
vn -0.933624 -0.346961 -0.089241
vn -0.957349 0.272572 -0.095855
vn -0.9021 -0.285972 -0.323164
vn -0.887963 0.32799 -0.322404
vn -0.564492 -0.820119 -0.093557
vn -0.606547 0.789544 -0.093382
vn -0.538081 -0.777771 -0.324873
vn -0.538081 0.777771 -0.324873
vn 0.023627 -0.994986 -0.097182
vn 0 -0.941234 -0.337754
vn 0 0.941234 -0.337754
vn -0.023627 0.994986 -0.097183
vn 0.538081 -0.777771 -0.324873
vn 0.538081 0.77777 -0.324873
vn 0.606547 -0.789544 -0.093382
vn 0.564492 0.820119 -0.093557
vn 0.887963 -0.32799 -0.322404
vn 0.9021 0.285972 -0.323164
vn 0.957349 -0.272572 -0.095855
vn 0.933624 0.346961 -0.089242

# Number of texture vertices: 158
vt 0.0477 0.328145
vt 1.0477 0.328145
vt 0.146174 0.324233
vt 0.25 0.321677
vt 0.353826 0.324233
vt 0.4523 0.328145
vt 0.5477 0.328145
vt 0.646174 0.324233
vt 0.75 0.321677
vt 0.853826 0.324233
vt 0.9523 0.328145
vt 0.0477 0.431944
vt 1.0477 0.431944
vt 0.146174 0.430093
vt 0.25 0.428871
vt 0.353826 0.430093
vt 0.4523 0.431944
vt 0.5477 0.431944
vt 0.646174 0.430093
vt 0.75 0.428871
vt 0.853826 0.430093
vt 0.9523 0.431944
vt 0.0477 0.552066
vt 1.0477 0.552066
vt 0.146174 0.553501
vt 0.25 0.554449
vt 0.353826 0.553501
vt 0.4523 0.552066
vt 0.5477 0.552066
vt 0.646174 0.553501
vt 0.75 0.554449
vt 0.853826 0.553501
vt 0.9523 0.552066
vt 0.0477 0.659378
vt 1.0477 0.659378
vt 0.146174 0.663117
vt 0.25 0.665565
vt 0.353826 0.663117
vt 0.4523 0.659378
vt 0.5477 0.659378
vt 0.646174 0.663117
vt 0.75 0.665565
vt 0.853826 0.663117
vt 0.9523 0.659378
vt 0.0477 0.841751
vt 1.0477 0.841751
vt 0.146174 0.845418
vt 0.25 0.847759
vt 0.353826 0.845418
vt 0.4523 0.841751
vt 0.5477 0.841751
vt 0.646174 0.845418
vt 0.75 0.847759
vt 0.853826 0.845418
vt 0.9523 0.841751
vt 0.0477 0.894173
vt 1.0477 0.894173
vt 0.146174 0.896863
vt 0.25 0.898571
vt 0.353826 0.896863
vt 0.4523 0.894173
vt 0.5477 0.894173
vt 0.646174 0.896863
vt 0.75 0.898571
vt 0.853826 0.896863
vt 0.9523 0.894173
vt 0.0477 0.946981
vt 1.0477 0.946981
vt 0.146174 0.948403
vt 0.25 0.949304
vt 0.353826 0.948403
vt 0.4523 0.946981
vt 0.5477 0.946981
vt 0.646174 0.948403
vt 0.75 0.949304
vt 0.853826 0.948403
vt 0.9523 0.946981
vt 0.5 1
vt 1.5 1
vt 0.5477 0.738355
vt 0.4523 0.738355
vt 0.5477 0.789815
vt 0.4523 0.789815
vt 0.646174 0.742754
vt 0.353826 0.742754
vt 0.646174 0.79407
vt 0.353826 0.79407
vt 0.75 0.745603
vt 0.75 0.796805
vt 0.25 0.796805
vt 0.25 0.745603
vt 0.853826 0.79407
vt 0.146174 0.79407
vt 0.853826 0.742754
vt 0.146174 0.742754
vt 0.9523 0.789815
vt 0.0477 0.789815
vt 1.0477 0.789815
vt 0.9523 0.738355
vt 0.0477 0.738355
vt 1.0477 0.738355
vt 0.9523 0.158249
vt 0.853826 0.154582
vt 0.75 0.152241
vt 0.646174 0.154582
vt 0.5477 0.158249
vt 0.4523 0.158249
vt 0.353826 0.154582
vt 0.25 0.152241
vt 0.146174 0.154582
vt 0.0477 0.158249
vt 1.0477 0.158249
vt 0.9523 0.105827
vt 0.853826 0.103137
vt 0.75 0.101429
vt 0.646174 0.103137
vt 0.5477 0.105827
vt 0.4523 0.105827
vt 0.353826 0.103137
vt 0.25 0.101429
vt 0.146174 0.103137
vt 0.0477 0.105827
vt 1.0477 0.105827
vt 0.9523 0.053019
vt 0.853826 0.051597
vt 0.75 0.050697
vt 0.646174 0.051597
vt 0.5477 0.053019
vt 0.4523 0.053019
vt 0.353826 0.051597
vt 0.25 0.050697
vt 0.146174 0.051597
vt 0.0477 0.053019
vt 1.0477 0.053019
vt 1.25 0
vt 0.25 0
vt 0.5477 0.252978
vt 0.4523 0.252978
vt 0.5477 0.210185
vt 0.4523 0.210185
vt 0.646174 0.248571
vt 0.353826 0.248571
vt 0.646174 0.20593
vt 0.353826 0.20593
vt 0.75 0.245721
vt 0.75 0.203195
vt 0.25 0.203195
vt 0.25 0.245721
vt 0.853826 0.20593
vt 0.146174 0.20593
vt 0.853826 0.248571
vt 0.146174 0.248571
vt 0.9523 0.210185
vt 0.0477 0.210185
vt 1.0477 0.210185
vt 0.9523 0.252978
vt 0.0477 0.252978
vt 1.0477 0.252978

g Vertex_Object 
usemtl Texture_0
# Number of Polygons: 100
f 89/97/89 85/93/85 42/47/42 41/45/41 
f 85/93/85 82/90/82 43/48/43 42/47/42 
f 82/90/82 79/87/79 44/49/44 43/48/43 
f 79/87/79 75/83/75 45/50/45 44/49/44 
f 75/83/75 74/82/74 46/51/46 45/50/45 
f 74/82/74 78/86/78 47/52/47 46/51/46 
f 78/86/78 81/89/81 48/53/48 47/52/47 
f 81/89/81 84/92/84 49/54/49 48/53/48 
f 84/92/84 88/96/88 50/55/50 49/54/49 
f 88/96/88 89/98/89 41/46/41 50/55/50 
f 41/45/41 42/47/42 52/58/52 51/56/51 
f 42/47/42 43/48/43 53/59/53 52/58/52 
f 43/48/43 44/49/44 54/60/54 53/59/53 
f 44/49/44 45/50/45 55/61/55 54/60/54 
f 45/50/45 46/51/46 56/62/56 55/61/55 
f 46/51/46 47/52/47 57/63/57 56/62/56 
f 47/52/47 48/53/48 58/64/58 57/63/57 
f 48/53/48 49/54/49 59/65/59 58/64/58 
f 49/54/49 50/55/50 60/66/60 59/65/59 
f 50/55/50 41/46/41 51/57/51 60/66/60 
f 51/56/51 52/58/52 62/69/62 61/67/61 
f 52/58/52 53/59/53 63/70/63 62/69/62 
f 53/59/53 54/60/54 64/71/64 63/70/63 
f 54/60/54 55/61/55 65/72/65 64/71/64 
f 55/61/55 56/62/56 66/73/66 65/72/65 
f 56/62/56 57/63/57 67/74/67 66/73/66 
f 57/63/57 58/64/58 68/75/68 67/74/67 
f 58/64/58 59/65/59 69/76/69 68/75/68 
f 59/65/59 60/66/60 70/77/70 69/76/69 
f 60/66/60 51/57/51 61/68/61 70/77/70 
f 71/78/71 61/67/61 62/69/62 
f 71/78/71 62/69/62 63/70/63 
f 71/78/71 63/70/63 64/71/64 
f 71/78/71 64/71/64 65/72/65 
f 71/78/71 65/72/65 66/73/66 
f 71/78/71 66/73/66 67/74/67 
f 71/78/71 67/74/67 68/75/68 
f 71/78/71 68/75/68 69/76/69 
f 71/78/71 69/76/69 70/77/70 
f 71/79/71 70/77/70 61/68/61 
f 88/96/88 90/99/90 91/101/91 89/98/89 
f 89/97/89 91/100/91 87/95/87 85/93/85 
f 85/93/85 87/95/87 83/91/83 82/90/82 
f 82/90/82 83/91/83 77/85/77 79/87/79 
f 79/87/79 77/85/77 73/81/73 75/83/75 
f 75/83/75 73/81/73 72/80/72 74/82/74 
f 74/82/74 72/80/72 76/84/76 78/86/78 
f 78/86/78 76/84/76 80/88/80 81/89/81 
f 81/89/81 80/88/80 86/94/86 84/92/84 
f 84/92/84 86/94/86 90/99/90 88/96/88 
f 139/153/139 135/149/135 93/103/93 92/102/92 
f 135/149/135 132/146/132 94/104/94 93/103/93 
f 132/146/132 129/143/129 95/105/95 94/104/94 
f 129/143/129 125/139/125 96/106/96 95/105/95 
f 125/139/125 126/140/126 97/107/97 96/106/96 
f 126/140/126 130/144/130 98/108/98 97/107/97 
f 130/144/130 133/147/133 99/109/99 98/108/98 
f 133/147/133 136/150/136 100/110/100 99/109/99 
f 136/150/136 140/154/140 101/111/101 100/110/100 
f 140/155/140 139/153/139 92/102/92 101/112/101 
f 92/102/92 93/103/93 103/114/103 102/113/102 
f 93/103/93 94/104/94 104/115/104 103/114/103 
f 94/104/94 95/105/95 105/116/105 104/115/104 
f 95/105/95 96/106/96 106/117/106 105/116/105 
f 96/106/96 97/107/97 107/118/107 106/117/106 
f 97/107/97 98/108/98 108/119/108 107/118/107 
f 98/108/98 99/109/99 109/120/109 108/119/108 
f 99/109/99 100/110/100 110/121/110 109/120/109 
f 100/110/100 101/111/101 111/122/111 110/121/110 
f 101/112/101 92/102/92 102/113/102 111/123/111 
f 102/113/102 103/114/103 113/125/113 112/124/112 
f 103/114/103 104/115/104 114/126/114 113/125/113 
f 104/115/104 105/116/105 115/127/115 114/126/114 
f 105/116/105 106/117/106 116/128/116 115/127/115 
f 106/117/106 107/118/107 117/129/117 116/128/116 
f 107/118/107 108/119/108 118/130/118 117/129/117 
f 108/119/108 109/120/109 119/131/119 118/130/118 
f 109/120/109 110/121/110 120/132/120 119/131/119 
f 110/121/110 111/122/111 121/133/121 120/132/120 
f 111/123/111 102/113/102 112/124/112 121/134/121 
f 122/135/122 112/124/112 113/125/113 
f 122/135/122 113/125/113 114/126/114 
f 122/135/122 114/126/114 115/127/115 
f 122/136/122 115/127/115 116/128/116 
f 122/136/122 116/128/116 117/129/117 
f 122/136/122 117/129/117 118/130/118 
f 122/136/122 118/130/118 119/131/119 
f 122/136/122 119/131/119 120/132/120 
f 122/136/122 120/132/120 121/133/121 
f 122/135/122 121/134/121 112/124/112 
f 135/149/135 137/151/137 131/145/131 132/146/132 
f 132/146/132 131/145/131 127/141/127 129/143/129 
f 129/143/129 127/141/127 123/137/123 125/139/125 
f 125/139/125 123/137/123 124/138/124 126/140/126 
f 126/140/126 124/138/124 128/142/128 130/144/130 
f 130/144/130 128/142/128 134/148/134 133/147/133 
f 133/147/133 134/148/134 138/152/138 136/150/136 
f 136/150/136 138/152/138 142/157/142 140/154/140 
f 140/155/140 142/158/142 141/156/141 139/153/139 
f 139/153/139 141/156/141 137/151/137 135/149/135 
g cyl 
usemtl Texture_0
# Number of Polygons: 50
f 142/157/142 138/152/138 2/3/2 1/1/1 
f 138/152/138 134/148/134 3/4/3 2/3/2 
f 134/148/134 128/142/128 4/5/4 3/4/3 
f 128/142/128 124/138/124 5/6/5 4/5/4 
f 124/138/124 123/137/123 6/7/6 5/6/5 
f 123/137/123 127/141/127 7/8/7 6/7/6 
f 127/141/127 131/145/131 8/9/8 7/8/7 
f 131/145/131 137/151/137 9/10/9 8/9/8 
f 137/151/137 141/156/141 10/11/10 9/10/9 
f 141/156/141 142/158/142 1/2/1 10/11/10 
f 1/1/1 2/3/2 12/14/12 11/12/11 
f 2/3/2 3/4/3 13/15/13 12/14/12 
f 3/4/3 4/5/4 14/16/14 13/15/13 
f 4/5/4 5/6/5 15/17/15 14/16/14 
f 5/6/5 6/7/6 16/18/16 15/17/15 
f 6/7/6 7/8/7 17/19/17 16/18/16 
f 7/8/7 8/9/8 18/20/18 17/19/17 
f 8/9/8 9/10/9 19/21/19 18/20/18 
f 9/10/9 10/11/10 20/22/20 19/21/19 
f 10/11/10 1/2/1 11/13/11 20/22/20 
f 11/12/11 12/14/12 22/25/22 21/23/21 
f 12/14/12 13/15/13 23/26/23 22/25/22 
f 13/15/13 14/16/14 24/27/24 23/26/23 
f 14/16/14 15/17/15 25/28/25 24/27/24 
f 15/17/15 16/18/16 26/29/26 25/28/25 
f 16/18/16 17/19/17 27/30/27 26/29/26 
f 17/19/17 18/20/18 28/31/28 27/30/27 
f 18/20/18 19/21/19 29/32/29 28/31/28 
f 19/21/19 20/22/20 30/33/30 29/32/29 
f 20/22/20 11/13/11 21/24/21 30/33/30 
f 21/23/21 22/25/22 32/36/32 31/34/31 
f 22/25/22 23/26/23 33/37/33 32/36/32 
f 23/26/23 24/27/24 34/38/34 33/37/33 
f 24/27/24 25/28/25 35/39/35 34/38/34 
f 25/28/25 26/29/26 36/40/36 35/39/35 
f 26/29/26 27/30/27 37/41/37 36/40/36 
f 27/30/27 28/31/28 38/42/38 37/41/37 
f 28/31/28 29/32/29 39/43/39 38/42/38 
f 29/32/29 30/33/30 40/44/40 39/43/39 
f 30/33/30 21/24/21 31/35/31 40/44/40 
f 31/34/31 32/36/32 87/95/87 91/100/91 
f 32/36/32 33/37/33 83/91/83 87/95/87 
f 33/37/33 34/38/34 77/85/77 83/91/83 
f 34/38/34 35/39/35 73/81/73 77/85/77 
f 35/39/35 36/40/36 72/80/72 73/81/73 
f 36/40/36 37/41/37 76/84/76 72/80/72 
f 37/41/37 38/42/38 80/88/80 76/84/76 
f 38/42/38 39/43/39 86/94/86 80/88/80 
f 39/43/39 40/44/40 90/99/90 86/94/86 
f 40/44/40 31/35/31 91/101/91 90/99/90 
