v 0.331913 0.6975 -0.302327
v -0.331913 0 -0.302327
v -0.331913 0.6975 -0.302327
v 0.331913 0 -0.302327
v -0.0730208 0.439425 0.302327
v -0.0730208 0.6975 0.302327
v -0.331913 0.6975 0.302327
v -0.331913 0.439425 0.302327
vn 0.201484 0.969971 0.134933
vn 0 -0.808744 0.587745
vn -0.999756 0 0
vn 0.330854 -0.64423 0.689758
vn 0.247937 -0.241389 0.938271
vn 0.309148 0 0.951176
vn 0 0 1.00024
vn 0 -0.298366 0.954505
vt -35.1575 36.9409
vt 0 0
vt 0 36.9409
vt -35.1575 0
vt 0.636913 -0.528731
vt 0.401255 0.51293
vt -2.21764e-17 -0.528731
vt 0.636913 0.51293
vt -0.606163 -4.43053e-16
vt 2.25473e-32 0.865503
vt -0.236404 0.865503
vt 2.25473e-32 -4.43053e-16
vt -0.636913 0
vt -0.401255 0.865503
vt -0.636913 0.865503
vt 0.236404 1.06992
vt 1.59932e-17 1.06992
vt 0.606163 -2.22651e-17
vt 0.236404 0.628994
vt 0 0.998404
vt 0 0.628994
vt 0.236404 0.998404
#  ----------------------------------------------------------
#  InternalName: sketchup_model_test1
#  ExternalName: sketchup_model_test1
#  Num verts:  8
#  Num sets:   36
#  Num elems:  12
#  Num tverts: 22
#  Num tsets:  36
#  Num tElems: 12

mtllib	sketchup-model-from-poser.mtl
g 
g 
usemtl FrontColor
f 1/1/1 2/2/2 3/3/3
f 2/2/2 1/1/1 4/4/4
usemtl Brick_Antique
f 1/5/1 5/6/5 4/7/4
f 5/6/5 1/5/1 6/8/6
f 1/9/1 7/10/7 6/11/6
f 7/10/7 1/9/1 3/12/3
f 3/13/3 8/14/8 7/15/7
f 8/14/8 3/13/3 2/2/2
f 2/2/2 5/16/5 8/17/8
f 5/16/5 2/2/2 4/18/4
f 5/19/5 7/20/7 8/21/8
f 7/20/7 5/19/5 6/22/6
