# Created By Carrara 7.0

newmtl Texture_0
 Ns 163
 d 1
 Ni 0.001
 illum 2
 Ka 0.2 0.2 0.2
 Kd 0.866667 0.85098 0.807843
 Ks 0.25 0.25 0.25
 map_Kd Texture_03.jpg
 map_Bump Texture_04.jpg

