# Created By Carrara 7.0

mtllib tuna-low-tex.Mtl

# Number of vertices: 160
v 60.26067 2.205365 0.166411
v 60.26067 -0.000001 0.073045
v 60.26067 -0.000001 -0.07304
v 60.26067 2.205365 -0.166405
v -0.279081 3.33924 -2.185458
v -17.674318 3.33924 -2.185459
v -63.651405 13.237087 -0.337321
v -63.651405 11.03172 -0.148067
v -63.651405 11.03172 0.148062
v -63.651405 13.237087 0.337315
v -17.674314 3.33924 2.185457
v -0.279081 3.33924 2.185458
v 60.113815 2.839528 0.166411
v 60.113815 2.839528 0.073045
v 60.113815 2.839528 -0.07304
v 60.113815 2.839528 -0.166405
v -0.279081 12.822749 -3.139005
v -17.674318 12.822749 -3.139005
v -63.071526 14.388638 -0.337321
v -63.071526 14.388638 -0.148067
v -63.071526 14.388638 0.148062
v -63.071526 14.388638 0.337315
v -17.674316 12.822749 3.139004
v -0.279081 12.822749 3.139005
v 63.545383 32.562511 0.1129
v 63.545383 32.562511 0.049557
v 63.545383 32.562511 -0.049555
v 63.545383 32.562511 -0.112897
v -0.279081 22.306255 -3.139005
v -17.674318 22.306255 -3.139005
v -63.178284 16.548981 -0.307391
v -63.178284 16.548981 -0.134928
v -63.178284 16.548981 0.134922
v -63.178284 16.548981 0.307385
v -17.674316 22.306255 3.139004
v -0.279081 22.306255 3.139005
v 63.651405 32.948082 0.1129
v 63.651405 34.952965 0.049557
v 63.651405 34.952965 -0.049555
v 63.651405 32.948082 -0.112897
v -0.279081 33.995121 -2.185458
v -17.674318 31.789757 -2.185459
v -63.556049 17.661512 -0.307391
v -63.556049 19.666391 -0.134928
v -63.556049 19.666391 0.134922
v -63.556049 17.661512 0.307385
v -17.674314 31.789757 2.185457
v -0.279081 33.995121 2.185458
v -0.279081 1.133874 0.959293
v -0.279081 1.133874 -0.959292
v -17.674314 1.133874 0.959292
v -17.674314 1.133874 -0.959293
v -0.279081 36.000004 0.959293
v -0.279081 36.000004 -0.959292
v -17.674318 33.794636 0.959292
v -17.674318 33.794636 -0.959293
v 15.985907 8.335677 2.185458
v 15.985907 6.130308 0.959293
v 15.985907 6.130308 -0.959292
v 15.985907 8.335677 -2.185457
v 15.985907 14.488226 3.139006
v 15.985907 14.488226 -3.139004
v 15.985907 20.640774 3.139006
v 15.985907 20.640774 -3.139004
v 15.985907 26.793322 2.185458
v 15.985907 28.798201 0.959293
v 15.985907 28.798201 -0.959292
v 15.985907 26.793322 -2.185457
v 30.196089 12.805238 1.127031
v 30.196089 10.599872 0.494705
v 30.196089 10.599872 -0.494702
v 30.196089 12.805238 -1.127028
v 30.196089 15.978078 2.080578
v 30.196089 15.978078 -2.080575
v 30.196089 19.150919 2.080578
v 30.196089 19.150919 -2.080575
v 30.196089 22.323761 1.127031
v 30.196089 24.328638 0.494705
v 30.196089 24.328638 -0.494702
v 30.196089 22.323761 -1.127028
v 38.333866 15.291782 0.538199
v 38.333866 13.086416 0.236239
v 38.333866 13.086416 -0.236235
v 38.333866 15.291782 -0.538196
v 38.333866 16.806927 1.491746
v 38.333866 16.806927 -1.491743
v 38.333866 18.322071 1.491746
v 38.333866 18.322071 -1.491743
v 38.333866 19.837215 0.538199
v 38.333866 21.842093 0.236239
v 38.333866 21.842093 -0.236235
v 38.333866 19.837215 -0.538196
v -33.939301 3.930466 -2.185459
v -33.939301 1.725097 -0.959294
v -33.939301 1.725097 0.959291
v -33.939304 3.930466 2.185456
v -33.939301 13.387812 -3.139006
v -33.939304 13.387812 3.139004
v -33.939301 21.741188 -3.139006
v -33.939304 21.741188 3.139004
v -33.939301 30.094568 -2.185459
v -33.939301 32.099449 -0.959294
v -33.939301 32.099449 0.959291
v -33.939304 30.094568 2.185456
v -46.208622 5.303547 -1.776342
v -46.208622 3.098181 -0.779715
v -46.208622 3.098181 0.779711
v -46.208622 5.303547 1.776338
v -46.208622 13.039437 -2.729889
v -46.208622 13.039437 2.729885
v -46.208622 19.829069 -2.729889
v -46.208622 19.829069 2.729885
v -46.208622 26.6187 -1.776342
v -46.208622 28.623579 -0.779715
v -46.208622 28.623579 0.779711
v -46.208622 26.6187 1.776338
v -55.250603 6.927955 -1.382075
v -55.250603 4.722589 -0.606653
v -55.250603 4.722589 0.606649
v -55.250603 6.927955 1.38207
v -55.250603 12.210592 -2.335622
v -55.250603 12.210592 2.335617
v -55.250603 17.493223 -2.335622
v -55.250603 17.493223 2.335617
v -55.250603 22.775858 -1.382075
v -55.250603 24.780737 -0.606653
v -55.250603 24.780737 0.606649
v -55.250603 22.775858 1.38207
v 52.961014 5.501217 2.41176
v 52.961014 3.29585 1.058626
v 52.961014 3.29585 -1.058622
v 52.961014 5.501217 -2.411756
v 50.832661 14.692222 3.365307
v 50.832661 14.692222 1.058626
v 50.832661 14.692222 -1.058622
v 50.832661 14.692222 -3.365303
v 51.894623 20.235804 3.365307
v 51.894623 20.235804 1.058626
v 51.894623 20.235804 -1.058622
v 51.894623 20.235804 -3.365303
v 54.159542 28.472458 2.41176
v 54.159542 30.477337 1.058626
v 54.159542 30.477337 -1.058622
v 54.159542 28.472458 -2.411756
v -59.213062 15.577298 -1.862498
v -59.213062 15.577298 -0.398981
v -59.213062 15.577298 0.398976
v -59.213062 15.577298 1.862493
v -60.330116 19.971027 -0.908951
v -60.330116 21.975906 -0.398981
v -60.330116 21.975906 0.398976
v -60.330116 19.971027 0.908946
v -61.49913 10.930122 -0.908952
v -61.49913 8.724752 -0.398981
v -61.49913 8.724752 0.398976
v -61.49913 10.930122 0.908946
v -59.936562 14.033141 -1.862498
v -59.936562 14.033141 -0.398981
v -59.936562 14.033141 0.398976
v -59.936562 14.033141 1.862493

# Number of normals: 160
vn 0.367344 -0.051481 0.928659
vn 0.539152 -0.607148 0.583683
vn 0.408578 -0.727237 -0.551535
vn 0.367344 -0.051481 -0.928659
vn 0.044114 -0.296658 -0.953964
vn -0.005882 -0.306133 -0.951971
vn -0.543608 0.091643 -0.834321
vn -0.83875 -0.243752 -0.486911
vn -0.834751 -0.291456 0.467167
vn -0.543608 0.091643 0.834321
vn -0.005259 -0.29587 0.955214
vn 0.049399 -0.307113 0.95039
vn 0.817465 0.348295 0.458739
vn 0.920421 0.388653 -0.042112
vn 0.925472 0.376365 0.043022
vn 0.817465 0.348295 -0.458739
vn 0.007559 -0.054023 -0.998511
vn -0.000981 -0.054246 -0.998527
vn -0.455924 0.689549 -0.562721
vn -0.522854 0.848119 0.085538
vn -0.576287 0.812407 -0.088816
vn -0.455924 0.689549 0.562721
vn -0.001049 -0.050452 0.998726
vn 0.007181 -0.058589 0.998256
vn 0.798946 -0.414649 0.435604
vn 0.904158 -0.423627 -0.055122
vn 0.898443 -0.435753 0.054029
vn 0.798946 -0.414649 -0.435604
vn 0.006372 0.05157 -0.998649
vn -0.00238 0.051513 -0.99867
vn -0.594551 -0.54694 -0.589378
vn -0.736902 -0.673601 0.056904
vn -0.708375 -0.703652 -0.055478
vn -0.594551 -0.54694 0.589377
vn -0.002395 0.051833 0.998653
vn 0.006232 0.050434 0.998708
vn 0.355849 0.026064 0.93418
vn 0.404512 0.712388 0.573475
vn 0.510274 0.617038 -0.59907
vn 0.355849 0.026064 -0.93418
vn 0.049008 0.326046 -0.944083
vn -0.032182 0.301045 -0.953067
vn -0.440935 -0.033399 -0.896917
vn -0.784005 0.382756 -0.488706
vn -0.797239 0.332034 0.504147
vn -0.440935 -0.033399 0.896917
vn -0.032182 0.301044 0.953067
vn 0.049008 0.326045 0.944083
vn 0.129679 -0.852378 0.506591
vn 0.125065 -0.862722 -0.489969
vn -0.015262 -0.869289 0.494068
vn -0.015855 -0.860221 -0.509676
vn 0.119703 0.873008 0.472787
vn 0.135451 0.870617 -0.472947
vn -0.099898 0.865974 0.490009
vn -0.100483 0.865457 -0.490804
vn 0.109462 -0.295833 0.948947
vn 0.263435 -0.823318 0.502743
vn 0.264114 -0.82627 -0.497516
vn 0.109462 -0.295833 -0.948947
vn 0.055551 -0.088097 0.994562
vn 0.05124 -0.077158 -0.995701
vn 0.05124 0.077158 0.995701
vn 0.055551 0.088097 -0.994562
vn 0.12731 0.303776 0.944199
vn 0.320461 0.821783 0.471145
vn 0.317346 0.820385 -0.475668
vn 0.12731 0.303776 -0.944199
vn 0.129498 -0.259922 0.956907
vn 0.266466 -0.760084 0.592678
vn 0.268346 -0.767117 -0.582685
vn 0.129498 -0.259922 -0.956907
vn 0.100663 -0.151679 0.983291
vn 0.101886 -0.159396 -0.981943
vn 0.101886 0.159396 0.981943
vn 0.100663 0.151679 -0.983291
vn 0.132903 0.271887 0.953108
vn 0.27044 0.775813 0.570066
vn 0.26866 0.769124 -0.579887
vn 0.132903 0.271887 -0.953108
vn -0.050172 -0.324395 0.94459
vn -0.133565 -0.709437 0.691997
vn -0.103022 -0.713472 -0.693069
vn -0.050172 -0.324394 -0.94459
vn -0.035791 -0.255075 0.966259
vn -0.045299 -0.276896 -0.959832
vn -0.048502 0.255398 0.965619
vn -0.03954 0.236861 -0.970739
vn -0.037716 0.331524 0.942693
vn -0.071163 0.727308 0.682612
vn -0.098183 0.724727 -0.682005
vn -0.037716 0.331524 -0.942693
vn -0.033071 -0.287176 -0.957307
vn -0.067408 -0.857734 -0.509655
vn -0.065081 -0.857542 0.51028
vn -0.033071 -0.287176 0.957307
vn -0.02155 -0.052516 -0.998388
vn -0.019916 -0.048534 0.998623
vn -0.026049 0.060207 -0.997846
vn -0.028335 0.065492 0.997451
vn -0.069936 0.309078 -0.948462
vn -0.163827 0.858115 -0.486621
vn -0.168934 0.85728 0.486345
vn -0.069936 0.309078 0.948462
vn -0.066496 -0.255291 -0.964575
vn -0.134502 -0.828003 -0.544352
vn -0.132348 -0.830358 0.541286
vn -0.066496 -0.255291 0.964575
vn -0.040563 -0.065538 -0.997025
vn -0.040563 -0.065538 0.997025
vn -0.059011 0.07417 -0.995498
vn -0.059011 0.07417 0.995498
vn -0.12589 0.275964 -0.952888
vn -0.293697 0.809103 -0.509013
vn -0.297202 0.805755 0.512279
vn -0.12589 0.275964 0.952888
vn -0.13445 -0.235975 -0.962413
vn -0.317503 -0.758878 -0.568591
vn -0.306081 -0.769195 0.560939
vn -0.13445 -0.235975 0.962413
vn -0.101809 -0.097697 -0.989995
vn -0.101809 -0.097697 0.989995
vn -0.113954 0.089386 -0.989457
vn -0.113954 0.089386 0.989457
vn -0.169003 0.248397 -0.953801
vn -0.383315 0.752164 -0.536022
vn -0.385931 0.748477 0.539295
vn -0.169004 0.248397 0.953801
vn -0.074599 -0.319475 0.944654
vn -0.356685 -0.776323 0.51971
vn -0.358044 -0.776482 -0.518536
vn -0.074599 -0.319475 -0.944654
vn 0.568301 0.048345 0.821399
vn 0.978591 0.205814 0
vn 0.978717 0.205216 0
vn 0.497361 0.070222 -0.864697
vn 0.4991 -0.201653 0.842755
vn 0.899113 -0.437717 0
vn 0.89883 -0.438298 0
vn 0.568731 -0.209047 -0.795515
vn -0.111851 0.356199 0.927692
vn -0.356873 0.800026 0.482286
vn -0.355977 0.799261 -0.484212
vn -0.111851 0.356199 -0.927692
vn -0.444161 -0.045752 -0.894778
vn -0.935151 -0.35425 0
vn -0.93398 -0.357325 0
vn -0.513726 -0.00271 0.85795
vn -0.23526 0.167827 -0.957333
vn -0.4646 0.674414 -0.573858
vn -0.462223 0.660851 0.591292
vn -0.23526 0.167827 0.957333
vn -0.280421 -0.147503 -0.948476
vn -0.555066 -0.613526 -0.561683
vn -0.552402 -0.624702 0.551905
vn -0.280421 -0.147503 0.948476
vn -0.516754 0.359733 -0.77689
vn -0.526558 0.850139 0
vn -0.5252 0.850979 0
vn -0.442039 0.333193 0.832817

# Number of texture vertices: 212
vt 0.069084 0.139558
vt 0.063292 0.717653
vt 0.069084 0.129737
vt 0.063292 0.707832
vt 0.069084 0.129737
vt 0.063292 0.707832
vt 0.063292 0.717653
vt 0.069084 0.139558
vt 0.49847 0.144607
vt 0.621848 0.144607
vt 0.942154 0.766778
vt 0.947946 0.188684
vt 0.942154 0.756958
vt 0.947946 0.178863
vt 0.947946 0.178863
vt 0.942154 0.756958
vt 0.947946 0.188684
vt 0.942154 0.766778
vt 0.616055 0.722702
vt 0.492677 0.722702
vt 0.070126 0.142382
vt 0.064333 0.720477
vt 0.070126 0.142382
vt 0.070126 0.142382
vt 0.064333 0.720477
vt 0.070126 0.142382
vt 0.064333 0.720477
vt 0.49847 0.186839
vt 0.621848 0.186839
vt 0.943833 0.193812
vt 0.938041 0.771906
vt 0.938041 0.771906
vt 0.943833 0.193812
vt 0.943833 0.193812
vt 0.938041 0.771906
vt 0.943833 0.193812
vt 0.616055 0.764933
vt 0.492677 0.764933
vt 0.045787 0.274742
vt 0.039994 0.852837
vt 0.045787 0.274742
vt 0.045787 0.274742
vt 0.039994 0.852837
vt 0.039994 0.852837
vt 0.045787 0.274742
vt 0.49847 0.22907
vt 0.621848 0.22907
vt 0.938798 0.781527
vt 0.94459 0.203432
vt 0.938798 0.781527
vt 0.94459 0.203432
vt 0.94459 0.203432
vt 0.94459 0.203432
vt 0.938798 0.781527
vt 0.616055 0.807164
vt 0.492677 0.807164
vt 0.045035 0.276459
vt 0.039242 0.854554
vt 0.045035 0.285387
vt 0.039242 0.863482
vt 0.045035 0.285387
vt 0.039242 0.863482
vt 0.039242 0.854554
vt 0.045035 0.276459
vt 0.49847 0.281121
vt 0.621848 0.271301
vt 0.941477 0.786481
vt 0.947269 0.208386
vt 0.947269 0.217314
vt 0.941477 0.795409
vt 0.947269 0.217314
vt 0.941477 0.795409
vt 0.947269 0.208386
vt 0.941477 0.786481
vt 0.616055 0.849396
vt 0.492677 0.859216
vt 0.492677 0.712881
vt 0.49847 0.134787
vt 0.49847 0.134787
vt 0.616055 0.712881
vt 0.621848 0.134787
vt 0.621848 0.134787
vt 0.492677 0.868144
vt 0.49847 0.290049
vt 0.49847 0.290049
vt 0.616055 0.858323
vt 0.621848 0.280229
vt 0.621848 0.280229
vt 0.377316 0.744952
vt 0.377316 0.735131
vt 0.383108 0.157036
vt 0.383108 0.157036
vt 0.383108 0.166857
vt 0.377316 0.77235
vt 0.383108 0.194255
vt 0.377316 0.799748
vt 0.383108 0.221653
vt 0.377316 0.827146
vt 0.377316 0.836074
vt 0.383108 0.257979
vt 0.383108 0.257979
vt 0.383108 0.249051
vt 0.276529 0.764855
vt 0.276529 0.755035
vt 0.282321 0.17694
vt 0.282321 0.17694
vt 0.282321 0.186761
vt 0.276529 0.778984
vt 0.282321 0.20089
vt 0.276529 0.793113
vt 0.282321 0.215019
vt 0.276529 0.807242
vt 0.276529 0.81617
vt 0.282321 0.238076
vt 0.282321 0.238076
vt 0.282321 0.229148
vt 0.21881 0.775928
vt 0.21881 0.766107
vt 0.224603 0.188013
vt 0.224603 0.188013
vt 0.224603 0.197833
vt 0.21881 0.782675
vt 0.224603 0.204581
vt 0.21881 0.789422
vt 0.224603 0.211328
vt 0.21881 0.796169
vt 0.21881 0.805097
vt 0.224603 0.227003
vt 0.224603 0.227003
vt 0.224603 0.218075
vt 0.737209 0.14724
vt 0.737209 0.137419
vt 0.737209 0.137419
vt 0.731417 0.715514
vt 0.731417 0.725335
vt 0.737209 0.189355
vt 0.731417 0.767449
vt 0.737209 0.226553
vt 0.731417 0.804648
vt 0.737209 0.263752
vt 0.737209 0.27268
vt 0.731417 0.850775
vt 0.737209 0.27268
vt 0.731417 0.841847
vt 0.824231 0.153355
vt 0.824231 0.143534
vt 0.824231 0.143534
vt 0.818439 0.721629
vt 0.818439 0.731449
vt 0.824231 0.187803
vt 0.818439 0.765898
vt 0.824231 0.218038
vt 0.818439 0.796133
vt 0.824231 0.248273
vt 0.824231 0.257201
vt 0.818439 0.835296
vt 0.824231 0.257201
vt 0.818439 0.826368
vt 0.888362 0.160588
vt 0.888362 0.150768
vt 0.888362 0.150768
vt 0.88257 0.728862
vt 0.88257 0.738683
vt 0.888362 0.184113
vt 0.88257 0.762207
vt 0.888362 0.207637
vt 0.88257 0.785731
vt 0.888362 0.231161
vt 0.888362 0.240089
vt 0.88257 0.818183
vt 0.888362 0.240089
vt 0.88257 0.809256
vt 0.115065 0.73233
vt 0.115065 0.722509
vt 0.120858 0.144414
vt 0.120858 0.144414
vt 0.120858 0.154235
vt 0.130161 0.773258
vt 0.135953 0.195164
vt 0.135953 0.195164
vt 0.135953 0.195164
vt 0.135953 0.195164
vt 0.122629 0.797944
vt 0.128421 0.21985
vt 0.128421 0.21985
vt 0.128421 0.21985
vt 0.128421 0.21985
vt 0.106565 0.834623
vt 0.112357 0.265456
vt 0.106565 0.843551
vt 0.112357 0.265456
vt 0.112357 0.256528
vt 0.916466 0.199105
vt 0.916466 0.199105
vt 0.916466 0.199105
vt 0.910674 0.7772
vt 0.916466 0.199105
vt 0.924389 0.218671
vt 0.924389 0.227599
vt 0.918597 0.805693
vt 0.924389 0.227599
vt 0.918597 0.796765
vt 0.932681 0.17841
vt 0.932681 0.16859
vt 0.932681 0.16859
vt 0.926888 0.746684
vt 0.926888 0.756505
vt 0.921598 0.192229
vt 0.921598 0.192229
vt 0.921598 0.192229
vt 0.921598 0.192229
vt 0.915806 0.770323

g Vertex_Object 
usemtl Texture_0
# Number of Polygons: 316
f 1/1/1 2/3/2 14/23/14 
f 2/3/2 3/5/3 15/24/15 
f 3/6/3 4/7/4 15/25/15 
f 5/9/5 6/10/6 18/29/18 
f 7/11/7 8/13/8 20/32/20 
f 8/14/8 9/15/9 21/34/21 
f 9/15/9 10/17/10 21/34/21 
f 11/19/11 12/20/12 24/38/24 
f 17/28/17 18/29/18 30/47/30 
f 23/37/23 24/38/24 36/56/36 
f 25/39/25 26/41/26 37/57/37 
f 26/41/26 27/42/27 39/61/39 
f 27/43/27 28/44/28 40/63/40 
f 29/46/29 30/47/30 42/66/42 
f 31/48/31 32/50/32 43/67/43 
f 32/51/32 33/52/33 45/71/45 
f 33/52/33 34/53/34 46/73/46 
f 35/55/35 36/56/36 47/75/47 
f 11/19/11 51/80/51 49/77/49 
f 51/81/51 52/82/52 50/79/50 
f 52/82/52 6/10/6 5/9/5 
f 48/76/48 53/83/53 55/86/55 
f 53/84/53 54/85/54 56/88/56 
f 54/85/54 41/65/41 56/88/56 
f 12/20/12 49/77/49 58/90/58 
f 49/78/49 50/79/50 59/92/59 
f 50/79/50 5/9/5 59/92/59 
f 12/20/12 57/89/57 24/38/24 
f 60/93/60 5/9/5 17/28/17 
f 24/38/24 61/94/61 63/96/63 
f 62/95/62 17/28/17 29/46/29 
f 36/56/36 63/96/63 65/98/65 
f 65/98/65 66/99/66 48/76/48 
f 66/100/66 67/101/67 54/85/54 
f 64/97/64 29/46/29 68/102/68 
f 67/101/67 68/102/68 41/65/41 
f 57/89/57 58/90/58 70/104/70 
f 58/91/58 59/92/59 71/106/71 
f 59/92/59 60/93/60 71/106/71 
f 61/94/61 57/89/57 69/103/69 
f 60/93/60 62/95/62 72/107/72 
f 63/96/63 61/94/61 73/108/73 
f 62/95/62 64/97/64 76/111/76 
f 65/98/65 63/96/63 77/112/77 
f 66/99/66 65/98/65 78/113/78 
f 67/101/67 66/100/66 78/114/78 
f 64/97/64 68/102/68 80/116/80 
f 68/102/68 67/101/67 79/115/79 
f 69/103/69 70/104/70 82/118/82 
f 70/105/70 71/106/71 83/120/83 
f 71/106/71 72/107/72 83/120/83 
f 73/108/73 69/103/69 81/117/81 
f 72/107/72 74/109/74 84/121/84 
f 75/110/75 73/108/73 85/122/85 
f 74/109/74 76/111/76 88/125/88 
f 77/112/77 75/110/75 89/126/89 
f 78/113/78 77/112/77 90/127/90 
f 79/115/79 78/114/78 90/128/90 
f 76/111/76 80/116/80 92/130/92 
f 80/116/80 79/115/79 91/129/91 
f 94/132/94 93/131/93 6/10/6 
f 95/133/95 94/132/94 52/82/52 
f 96/135/96 95/134/95 11/19/11 
f 6/10/6 93/131/93 18/29/18 
f 96/135/96 11/19/11 23/37/23 
f 18/29/18 97/136/97 99/138/99 
f 98/137/98 23/37/23 35/55/35 
f 30/47/30 99/138/99 101/140/101 
f 56/88/56 42/66/42 102/141/102 
f 55/87/55 56/88/56 102/141/102 
f 100/139/100 35/55/35 104/144/104 
f 47/75/47 55/86/55 103/142/103 
f 93/131/93 94/132/94 106/146/106 
f 94/132/94 95/133/95 107/147/107 
f 95/134/95 96/135/96 107/148/107 
f 105/145/105 109/150/109 97/136/97 
f 96/135/96 98/137/98 108/149/108 
f 109/150/109 111/152/111 97/136/97 
f 98/137/98 100/139/100 112/153/112 
f 111/152/111 113/154/113 99/138/99 
f 102/141/102 101/140/101 114/155/114 
f 103/143/103 102/141/102 114/155/114 
f 100/139/100 104/144/104 116/158/116 
f 104/144/104 103/142/103 115/156/115 
f 105/145/105 106/146/106 118/160/118 
f 106/146/106 107/147/107 119/161/119 
f 107/148/107 108/149/108 119/162/119 
f 117/159/117 121/164/121 109/150/109 
f 108/149/108 110/151/110 120/163/120 
f 121/164/121 123/166/123 109/150/109 
f 110/151/110 112/153/112 124/167/124 
f 123/166/123 125/168/125 111/152/111 
f 114/155/114 113/154/113 126/169/126 
f 115/157/115 114/155/114 126/169/126 
f 112/153/112 116/158/116 128/172/128 
f 116/158/116 115/156/115 127/170/127 
f 81/117/81 82/118/82 129/173/129 
f 82/119/82 83/120/83 131/176/131 
f 83/120/83 84/121/84 132/177/132 
f 85/122/85 81/117/81 133/178/133 
f 84/121/84 86/123/86 136/182/136 
f 129/173/129 130/174/130 1/2/1 
f 134/180/134 133/179/133 13/21/13 
f 133/178/133 129/173/129 13/22/13 
f 130/175/130 131/176/131 3/5/3 
f 135/181/135 134/180/134 14/23/14 
f 131/176/131 132/177/132 4/8/4 
f 132/177/132 136/182/136 16/26/16 
f 136/182/136 135/181/135 16/26/16 
f 87/124/87 85/122/85 133/178/133 
f 133/179/133 134/180/134 138/185/138 
f 134/180/134 135/181/135 139/186/139 
f 86/123/86 88/125/88 136/182/136 
f 135/181/135 136/182/136 140/187/140 
f 89/126/89 87/124/87 137/183/137 
f 90/127/90 89/126/89 141/188/141 
f 91/129/91 90/128/90 142/189/142 
f 88/125/88 92/130/92 140/187/140 
f 92/130/92 91/129/91 144/192/144 
f 26/41/26 25/39/25 138/185/138 
f 27/42/27 26/41/26 138/185/138 
f 28/45/28 27/42/27 139/186/139 
f 142/190/142 141/188/141 37/58/37 
f 141/188/141 137/183/137 25/40/25 
f 143/191/143 142/189/142 38/59/38 
f 140/187/140 144/192/144 28/45/28 
f 144/192/144 143/191/143 40/64/40 
f 145/193/145 149/198/149 123/166/123 
f 126/169/126 125/168/125 150/199/150 
f 127/171/127 126/169/126 150/199/150 
f 124/167/124 128/172/128 152/202/152 
f 128/172/128 127/170/127 151/200/151 
f 32/51/32 31/49/31 146/194/146 
f 33/52/33 32/51/32 146/194/146 
f 34/53/34 33/52/33 147/195/147 
f 31/49/31 43/68/43 149/198/149 
f 150/199/150 149/198/149 44/69/44 
f 151/201/151 150/199/150 44/69/44 
f 148/196/148 152/202/152 34/54/34 
f 152/202/152 151/200/151 45/72/45 
f 117/159/117 118/160/118 154/204/154 
f 118/160/118 119/161/119 155/205/155 
f 119/162/119 120/163/120 155/206/155 
f 153/203/153 157/208/157 121/164/121 
f 157/208/157 145/193/145 121/164/121 
f 157/208/157 158/209/158 146/194/146 
f 158/209/158 159/210/159 147/195/147 
f 120/163/120 122/165/122 156/207/156 
f 122/165/122 124/167/124 148/196/148 
f 159/210/159 160/211/160 148/197/148 
f 7/12/7 19/30/19 153/203/153 
f 153/203/153 154/204/154 8/14/8 
f 158/209/158 157/208/157 19/30/19 
f 154/204/154 155/205/155 9/15/9 
f 159/210/159 158/209/158 20/33/20 
f 155/206/155 156/207/156 9/16/9 
f 156/207/156 160/212/160 22/35/22 
f 160/211/160 159/210/159 22/36/22 
f 1/1/1 14/23/14 13/21/13 
f 2/3/2 15/24/15 14/23/14 
f 4/7/4 16/27/16 15/25/15 
f 5/9/5 18/29/18 17/28/17 
f 7/11/7 20/32/20 19/31/19 
f 8/14/8 21/34/21 20/33/20 
f 10/17/10 22/36/22 21/34/21 
f 11/19/11 24/38/24 23/37/23 
f 17/28/17 30/47/30 29/46/29 
f 23/37/23 36/56/36 35/55/35 
f 26/41/26 38/59/38 37/57/37 
f 26/41/26 39/61/39 38/59/38 
f 27/43/27 40/63/40 39/62/39 
f 29/46/29 42/66/42 41/65/41 
f 32/50/32 44/70/44 43/67/43 
f 32/51/32 45/71/45 44/69/44 
f 33/52/33 46/73/46 45/71/45 
f 36/56/36 48/76/48 47/75/47 
f 11/19/11 49/77/49 12/20/12 
f 51/81/51 50/79/50 49/78/49 
f 52/82/52 5/9/5 50/79/50 
f 48/76/48 55/86/55 47/75/47 
f 53/84/53 56/88/56 55/87/55 
f 41/65/41 42/66/42 56/88/56 
f 12/20/12 58/90/58 57/89/57 
f 49/78/49 59/92/59 58/91/58 
f 5/9/5 60/93/60 59/92/59 
f 57/89/57 61/94/61 24/38/24 
f 60/93/60 17/28/17 62/95/62 
f 24/38/24 63/96/63 36/56/36 
f 62/95/62 29/46/29 64/97/64 
f 36/56/36 65/98/65 48/76/48 
f 66/99/66 53/83/53 48/76/48 
f 66/100/66 54/85/54 53/84/53 
f 29/46/29 41/65/41 68/102/68 
f 67/101/67 41/65/41 54/85/54 
f 57/89/57 70/104/70 69/103/69 
f 58/91/58 71/106/71 70/105/70 
f 60/93/60 72/107/72 71/106/71 
f 61/94/61 69/103/69 73/108/73 
f 62/95/62 74/109/74 72/107/72 
f 63/96/63 73/108/73 75/110/75 
f 62/95/62 76/111/76 74/109/74 
f 63/96/63 75/110/75 77/112/77 
f 65/98/65 77/112/77 78/113/78 
f 67/101/67 78/114/78 79/115/79 
f 64/97/64 80/116/80 76/111/76 
f 68/102/68 79/115/79 80/116/80 
f 69/103/69 82/118/82 81/117/81 
f 70/105/70 83/120/83 82/119/82 
f 72/107/72 84/121/84 83/120/83 
f 73/108/73 81/117/81 85/122/85 
f 74/109/74 86/123/86 84/121/84 
f 75/110/75 85/122/85 87/124/87 
f 74/109/74 88/125/88 86/123/86 
f 75/110/75 87/124/87 89/126/89 
f 77/112/77 89/126/89 90/127/90 
f 79/115/79 90/128/90 91/129/91 
f 76/111/76 92/130/92 88/125/88 
f 80/116/80 91/129/91 92/130/92 
f 94/132/94 6/10/6 52/82/52 
f 95/133/95 52/82/52 51/81/51 
f 95/134/95 51/80/51 11/19/11 
f 93/131/93 97/136/97 18/29/18 
f 96/135/96 23/37/23 98/137/98 
f 18/29/18 99/138/99 30/47/30 
f 98/137/98 35/55/35 100/139/100 
f 30/47/30 101/140/101 42/66/42 
f 42/66/42 101/140/101 102/141/102 
f 55/87/55 102/141/102 103/143/103 
f 35/55/35 47/75/47 104/144/104 
f 47/75/47 103/142/103 104/144/104 
f 93/131/93 106/146/106 105/145/105 
f 94/132/94 107/147/107 106/146/106 
f 96/135/96 108/149/108 107/148/107 
f 105/145/105 97/136/97 93/131/93 
f 98/137/98 110/151/110 108/149/108 
f 111/152/111 99/138/99 97/136/97 
f 98/137/98 112/153/112 110/151/110 
f 113/154/113 101/140/101 99/138/99 
f 101/140/101 113/154/113 114/155/114 
f 103/143/103 114/155/114 115/157/115 
f 100/139/100 116/158/116 112/153/112 
f 104/144/104 115/156/115 116/158/116 
f 105/145/105 118/160/118 117/159/117 
f 106/146/106 119/161/119 118/160/118 
f 108/149/108 120/163/120 119/162/119 
f 117/159/117 109/150/109 105/145/105 
f 110/151/110 122/165/122 120/163/120 
f 123/166/123 111/152/111 109/150/109 
f 110/151/110 124/167/124 122/165/122 
f 125/168/125 113/154/113 111/152/111 
f 113/154/113 125/168/125 126/169/126 
f 115/157/115 126/169/126 127/171/127 
f 112/153/112 128/172/128 124/167/124 
f 116/158/116 127/170/127 128/172/128 
f 82/118/82 130/174/130 129/173/129 
f 82/119/82 131/176/131 130/175/130 
f 83/120/83 132/177/132 131/176/131 
f 81/117/81 129/173/129 133/178/133 
f 84/121/84 136/182/136 132/177/132 
f 130/174/130 2/4/2 1/2/1 
f 134/180/134 13/21/13 14/23/14 
f 129/173/129 1/2/1 13/22/13 
f 130/175/130 3/5/3 2/3/2 
f 135/181/135 14/23/14 15/24/15 
f 131/176/131 4/8/4 3/5/3 
f 132/177/132 16/26/16 4/8/4 
f 135/181/135 15/24/15 16/26/16 
f 87/124/87 133/178/133 137/183/137 
f 133/179/133 138/185/138 137/184/137 
f 134/180/134 139/186/139 138/185/138 
f 88/125/88 140/187/140 136/182/136 
f 135/181/135 140/187/140 139/186/139 
f 89/126/89 137/183/137 141/188/141 
f 90/127/90 141/188/141 142/190/142 
f 91/129/91 142/189/142 143/191/143 
f 92/130/92 144/192/144 140/187/140 
f 91/129/91 143/191/143 144/192/144 
f 25/39/25 137/184/137 138/185/138 
f 27/42/27 138/185/138 139/186/139 
f 28/45/28 139/186/139 140/187/140 
f 142/190/142 37/58/37 38/60/38 
f 141/188/141 25/40/25 37/58/37 
f 143/191/143 38/59/38 39/61/39 
f 144/192/144 40/64/40 28/45/28 
f 143/191/143 39/61/39 40/64/40 
f 149/198/149 125/168/125 123/166/123 
f 125/168/125 149/198/149 150/199/150 
f 127/171/127 150/199/150 151/201/151 
f 124/167/124 152/202/152 148/196/148 
f 128/172/128 151/200/151 152/202/152 
f 31/49/31 145/193/145 146/194/146 
f 33/52/33 146/194/146 147/195/147 
f 34/53/34 147/195/147 148/197/148 
f 31/49/31 149/198/149 145/193/145 
f 149/198/149 43/68/43 44/69/44 
f 151/201/151 44/69/44 45/71/45 
f 152/202/152 46/74/46 34/54/34 
f 152/202/152 45/72/45 46/74/46 
f 117/159/117 154/204/154 153/203/153 
f 118/160/118 155/205/155 154/204/154 
f 120/163/120 156/207/156 155/206/155 
f 153/203/153 121/164/121 117/159/117 
f 145/193/145 123/166/123 121/164/121 
f 157/208/157 146/194/146 145/193/145 
f 158/209/158 147/195/147 146/194/146 
f 122/165/122 160/212/160 156/207/156 
f 122/165/122 148/196/148 160/212/160 
f 159/210/159 148/197/148 147/195/147 
f 19/30/19 157/208/157 153/203/153 
f 153/203/153 8/14/8 7/12/7 
f 158/209/158 19/30/19 20/33/20 
f 154/204/154 9/15/9 8/14/8 
f 159/210/159 20/33/20 21/34/21 
f 156/207/156 10/18/10 9/16/9 
f 156/207/156 22/35/22 10/18/10 
f 159/210/159 21/34/21 22/36/22 
